{
  "2":
  {
    "nodes":
    [
      {
        "name":"Cluster 0"
        , "id":18
        , "start":"1.00"
        , "end":"7.00"
        , "details":
        [
          {
            "type":"table"
            , "Cluster Name":"i_sfc_s_c0_in_entry_motion_estimations_c0_enter_motion_estimation1"
            , "Cluster Type":"Stall-Free"
            , "Cluster Start Cycle":"1"
            , "Cluster Latency":"6"
          }
        ]
        , "type":"cluster"
        , "children":
        [
          {
            "name":"Logic"
            , "id":389
            , "subtype":"entry"
            , "details":
            [
              {
                "type":"table"
                , "Cluster Logic Start Cycle":"1"
                , "Cluster Logic Latency":"2"
              }
            ]
            , "type":"inst"
          }
          , {
            "name":"Exit"
            , "id":390
            , "subtype":"exit"
            , "details":
            [
              {
                "type":"table"
                , "Max Fanout":"2"
                , "Start Cycle":"3"
                , "Latency":"3"
                , "Exit FIFO Depth":"32"
                , "Exit FIFO Width":"8"
                , "Details":"Exit FIFO depth is sized to accommodate all data that may be in-flight in the stall-free cluster; this depth will be equal to or greater than the latency of the cluster.  The width of the FIFO depends on the amount of data that needs to pass from the stall-free logic cluster to the stall-able logic below it."
              }
            ]
            , "type":"inst"
          }
        ]
      }
      , {
        "name":"Feedback"
        , "id":17
        , "start":"6.00"
        , "end":"7.00"
        , "subtype":"pop"
        , "details":
        [
          {
            "type":"table"
            , "Instruction":"Feedback Read"
            , "Variable":"Unknown variable"
            , "Max Fanout":"1"
            , "Start Cycle":"6"
            , "Latency":"1"
          }
        ]
        , "debug":
        [
          [
            {
              "filename":"/home/u148853/motion_estimation.cl"
              , "line":47
            }
          ]
        ]
        , "type":"inst"
      }
    ]
    , "links":
    [
      {
        "from":389
        , "to":390
      }
    ]
  }
  , "3":
  {
    "nodes":
    [
      {
        "name":"Cluster 1"
        , "id":21
        , "start":"1.00"
        , "end":"6.00"
        , "details":
        [
          {
            "type":"table"
            , "Cluster Name":"i_sfc_s_c0_in_for_cond1_i_preheader_motion_estimations_c0_enter15726_motion_estimation1"
            , "Cluster Type":"Stall-Free"
            , "Cluster Start Cycle":"1"
            , "Cluster Latency":"5"
          }
        ]
        , "type":"cluster"
        , "children":
        [
          {
            "name":"Logic"
            , "id":391
            , "subtype":"entry"
            , "details":
            [
              {
                "type":"table"
                , "Cluster Logic Start Cycle":"1"
                , "Cluster Logic Latency":"1"
              }
            ]
            , "type":"inst"
          }
          , {
            "name":"Exit"
            , "id":392
            , "subtype":"exit"
            , "details":
            [
              {
                "type":"table"
                , "Max Fanout":"2"
                , "Start Cycle":"2"
                , "Latency":"3"
                , "Exit FIFO Depth":"32"
                , "Exit FIFO Width":"320"
                , "Details":"Exit FIFO depth is sized to accommodate all data that may be in-flight in the stall-free cluster; this depth will be equal to or greater than the latency of the cluster.  The width of the FIFO depends on the amount of data that needs to pass from the stall-free logic cluster to the stall-able logic below it."
              }
            ]
            , "type":"inst"
          }
        ]
      }
      , {
        "name":"Loop Orch"
        , "id":19
        , "subtype":"default"
        , "details":
        [
          {
            "type":"table"
            , "Instruction":"Loop Orchestration Logic"
          }
        ]
        , "debug":
        [
          [
            {
              "filename":"/home/u148853/motion_estimation.cl"
              , "line":38
            }
          ]
        ]
        , "type":"inst"
      }
    ]
    , "links":
    [
      {
        "from":391
        , "to":392
      }
      , {
        "from":19
        , "to":391
        , "details":
        [
          {
            "type":"table"
            , "Width":"1"
          }
        ]
      }
      , {
        "from":19
        , "to":391
        , "details":
        [
          {
            "type":"table"
            , "Width":"32"
          }
        ]
      }
    ]
  }
  , "4":
  {
    "nodes":
    [
      {
        "name":"Input"
        , "id":22
        , "subtype":"default"
        , "details":
        [
          {
            "type":"table"
            , "Instruction":"Input"
            , "Preceding Blocks":"motion_estimation.B3"
            , "Max Fanout":"0"
          }
        ]
        , "type":"inst"
      }
    ]
    , "links":
    [
    ]
  }
  , "5":
  {
    "nodes":
    [
      {
        "name":"Cluster 2"
        , "id":30
        , "start":"1.00"
        , "end":"6.00"
        , "details":
        [
          {
            "type":"table"
            , "Cluster Name":"i_sfc_s_c0_in_for_body4_i_motion_estimations_c0_enter16129_motion_estimation1"
            , "Cluster Type":"Stall-Free"
            , "Cluster Start Cycle":"1"
            , "Cluster Latency":"5"
          }
        ]
        , "type":"cluster"
        , "children":
        [
          {
            "name":"Logic"
            , "id":393
            , "subtype":"entry"
            , "details":
            [
              {
                "type":"table"
                , "Cluster Logic Start Cycle":"1"
                , "Cluster Logic Latency":"1"
              }
            ]
            , "type":"inst"
          }
          , {
            "name":"Exit"
            , "id":394
            , "subtype":"exit"
            , "details":
            [
              {
                "type":"table"
                , "Max Fanout":"2"
                , "Start Cycle":"2"
                , "Latency":"3"
                , "Exit FIFO Depth":"32"
                , "Exit FIFO Width":"384"
                , "Details":"Exit FIFO depth is sized to accommodate all data that may be in-flight in the stall-free cluster; this depth will be equal to or greater than the latency of the cluster.  The width of the FIFO depends on the amount of data that needs to pass from the stall-free logic cluster to the stall-able logic below it."
              }
            ]
            , "type":"inst"
          }
        ]
      }
      , {
        "name":"Cluster 3"
        , "id":32
        , "start":"796.00"
        , "end":"802.00"
        , "details":
        [
          {
            "type":"table"
            , "Cluster Name":"i_sfc_s_c1_in_for_body4_i_motion_estimations_c1_enter_motion_estimation5"
            , "Cluster Type":"Stall-Free"
            , "Cluster Start Cycle":"796"
            , "Cluster Latency":"6"
          }
        ]
        , "type":"cluster"
        , "children":
        [
          {
            "name":"Logic"
            , "id":395
            , "subtype":"entry"
            , "details":
            [
              {
                "type":"table"
                , "Cluster Logic Start Cycle":"796"
                , "Cluster Logic Latency":"2"
              }
            ]
            , "type":"inst"
          }
          , {
            "name":"Exit"
            , "id":396
            , "subtype":"exit"
            , "details":
            [
              {
                "type":"table"
                , "Max Fanout":"2"
                , "Start Cycle":"798"
                , "Latency":"3"
                , "Exit FIFO Depth":"32"
                , "Exit FIFO Width":"8"
                , "Details":"Exit FIFO depth is sized to accommodate all data that may be in-flight in the stall-free cluster; this depth will be equal to or greater than the latency of the cluster.  The width of the FIFO depends on the amount of data that needs to pass from the stall-free logic cluster to the stall-able logic below it."
              }
            ]
            , "type":"inst"
          }
        ]
      }
      , {
        "name":"Loop Input"
        , "id":24
        , "subtype":"default"
        , "details":
        [
          {
            "type":"table"
            , "Instruction":"Loop Input"
            , "Preceding Blocks":"motion_estimation.B3, motion_estimation.B1"
            , "Max Fanout":"0"
          }
        ]
        , "type":"inst"
      }
      , {
        "name":"LD"
        , "id":31
        , "start":"6.00"
        , "end":"796.00"
        , "subtype":"load/store"
        , "details":
        [
          {
            "type":"table"
            , "Instruction":"Load"
            , "Width":"8 bits"
            , "LSU Style":"Burst-coalesced"
            , "Stall-free":"No"
            , "Global Memory":"Yes"
            , "Max Fanout":"1"
            , "Start Cycle":"6"
            , "Latency":"790"
          }
        ]
        , "debug":
        [
          [
            {
              "filename":"/home/u148853/motion_estimation.cl"
              , "line":40
            }
          ]
        ]
        , "type":"inst"
      }
    ]
    , "links":
    [
      {
        "from":393
        , "to":394
      }
      , {
        "from":395
        , "to":396
      }
      , {
        "from":24
        , "to":393
        , "details":
        [
          {
            "type":"table"
            , "Width":"64"
          }
        ]
      }
      , {
        "from":24
        , "to":393
        , "details":
        [
          {
            "type":"table"
            , "Width":"32"
          }
        ]
      }
      , {
        "from":24
        , "to":393
        , "details":
        [
          {
            "type":"table"
            , "Width":"1"
          }
        ]
      }
      , {
        "from":24
        , "to":393
        , "details":
        [
          {
            "type":"table"
            , "Width":"64"
          }
        ]
      }
      , {
        "from":24
        , "to":393
        , "details":
        [
          {
            "type":"table"
            , "Width":"1"
          }
        ]
      }
      , {
        "from":31
        , "to":395
        , "details":
        [
          {
            "type":"table"
            , "Width":"8"
          }
        ]
      }
      , {
        "from":394
        , "to":31
        , "details":
        [
          {
            "type":"table"
            , "Width":"384"
          }
        ]
      }
    ]
  }
  , "6":
  {
    "nodes":
    [
      {
        "name":"Cluster 4"
        , "id":34
        , "start":"0.00"
        , "end":"14.00"
        , "details":
        [
          {
            "type":"table"
            , "Cluster Name":"i_sfc_s_c0_in_load_area_exit_motion_estimations_c0_enter175_motion_estimation0"
            , "Cluster Type":"Stall-Free"
            , "Cluster Start Cycle":"0"
            , "Cluster Latency":"14"
          }
        ]
        , "type":"cluster"
        , "children":
        [
          {
            "name":"Logic"
            , "id":397
            , "subtype":"entry"
            , "details":
            [
              {
                "type":"table"
                , "Cluster Logic Start Cycle":"0"
                , "Cluster Logic Latency":"10"
              }
            ]
            , "type":"inst"
          }
          , {
            "name":"Exit"
            , "id":398
            , "subtype":"exit"
            , "details":
            [
              {
                "type":"table"
                , "Max Fanout":"2"
                , "Start Cycle":"10"
                , "Latency":"3"
                , "Exit FIFO Depth":"32"
                , "Exit FIFO Width":"8"
                , "Details":"Exit FIFO depth is sized to accommodate all data that may be in-flight in the stall-free cluster; this depth will be equal to or greater than the latency of the cluster.  The width of the FIFO depends on the amount of data that needs to pass from the stall-free logic cluster to the stall-able logic below it."
              }
            ]
            , "type":"inst"
          }
        ]
      }
      , {
        "name":"Input"
        , "id":33
        , "subtype":"default"
        , "details":
        [
          {
            "type":"table"
            , "Instruction":"Input"
            , "Preceding Blocks":"motion_estimation.B2"
            , "Max Fanout":"0"
          }
        ]
        , "type":"inst"
      }
    ]
    , "links":
    [
      {
        "from":397
        , "to":398
      }
    ]
  }
  , "7":
  {
    "nodes":
    [
      {
        "name":"Cluster 5"
        , "id":36
        , "start":"0.00"
        , "end":"8.00"
        , "details":
        [
          {
            "type":"table"
            , "Cluster Name":"i_sfc_s_c0_in_for_cond1_i49_preheader_motion_estimations_c0_enter17925_motion_estimation2"
            , "Cluster Type":"Stall-Free"
            , "Cluster Start Cycle":"0"
            , "Cluster Latency":"8"
          }
        ]
        , "type":"cluster"
        , "children":
        [
          {
            "name":"Logic"
            , "id":399
            , "subtype":"entry"
            , "details":
            [
              {
                "type":"table"
                , "Cluster Logic Start Cycle":"0"
                , "Cluster Logic Latency":"4"
              }
            ]
            , "type":"inst"
          }
          , {
            "name":"Exit"
            , "id":400
            , "subtype":"exit"
            , "details":
            [
              {
                "type":"table"
                , "Max Fanout":"1"
                , "Start Cycle":"4"
                , "Latency":"3"
                , "Exit FIFO Depth":"32"
                , "Exit FIFO Width":"320"
                , "Details":"Exit FIFO depth is sized to accommodate all data that may be in-flight in the stall-free cluster; this depth will be equal to or greater than the latency of the cluster.  The width of the FIFO depends on the amount of data that needs to pass from the stall-free logic cluster to the stall-able logic below it."
              }
            ]
            , "type":"inst"
          }
        ]
      }
      , {
        "name":"Loop Input"
        , "id":35
        , "subtype":"default"
        , "details":
        [
          {
            "type":"table"
            , "Instruction":"Loop Input"
            , "Preceding Blocks":"motion_estimation.B6, motion_estimation.B4"
            , "Max Fanout":"0"
          }
        ]
        , "type":"inst"
      }
    ]
    , "links":
    [
      {
        "from":399
        , "to":400
      }
      , {
        "from":35
        , "to":399
        , "details":
        [
          {
            "type":"table"
            , "Width":"32"
          }
        ]
      }
    ]
  }
  , "8":
  {
    "nodes":
    [
      {
        "name":"Input"
        , "id":37
        , "subtype":"default"
        , "details":
        [
          {
            "type":"table"
            , "Instruction":"Input"
            , "Preceding Blocks":"motion_estimation.B7"
            , "Max Fanout":"0"
          }
        ]
        , "type":"inst"
      }
    ]
    , "links":
    [
    ]
  }
  , "9":
  {
    "nodes":
    [
      {
        "name":"Cluster 6"
        , "id":43
        , "start":"0.00"
        , "end":"8.00"
        , "details":
        [
          {
            "type":"table"
            , "Cluster Name":"i_sfc_s_c0_in_for_body4_i56_motion_estimations_c0_enter19828_motion_estimation5"
            , "Cluster Type":"Stall-Free"
            , "Cluster Start Cycle":"0"
            , "Cluster Latency":"8"
          }
        ]
        , "type":"cluster"
        , "children":
        [
          {
            "name":"Logic"
            , "id":401
            , "subtype":"entry"
            , "details":
            [
              {
                "type":"table"
                , "Cluster Logic Start Cycle":"0"
                , "Cluster Logic Latency":"4"
              }
            ]
            , "type":"inst"
          }
          , {
            "name":"Exit"
            , "id":402
            , "subtype":"exit"
            , "details":
            [
              {
                "type":"table"
                , "Max Fanout":"1"
                , "Start Cycle":"4"
                , "Latency":"3"
                , "Exit FIFO Depth":"32"
                , "Exit FIFO Width":"384"
                , "Details":"Exit FIFO depth is sized to accommodate all data that may be in-flight in the stall-free cluster; this depth will be equal to or greater than the latency of the cluster.  The width of the FIFO depends on the amount of data that needs to pass from the stall-free logic cluster to the stall-able logic below it."
              }
            ]
            , "type":"inst"
          }
        ]
      }
      , {
        "name":"Cluster 7"
        , "id":45
        , "start":"798.00"
        , "end":"807.00"
        , "details":
        [
          {
            "type":"table"
            , "Cluster Name":"i_sfc_s_c1_in_for_body4_i56_motion_estimations_c1_enter225_motion_estimation9"
            , "Cluster Type":"Stall-Free"
            , "Cluster Start Cycle":"798"
            , "Cluster Latency":"9"
          }
        ]
        , "type":"cluster"
        , "children":
        [
          {
            "name":"Logic"
            , "id":403
            , "subtype":"entry"
            , "details":
            [
              {
                "type":"table"
                , "Cluster Logic Start Cycle":"798"
                , "Cluster Logic Latency":"5"
              }
            ]
            , "type":"inst"
          }
          , {
            "name":"Exit"
            , "id":404
            , "subtype":"exit"
            , "details":
            [
              {
                "type":"table"
                , "Max Fanout":"2"
                , "Start Cycle":"803"
                , "Latency":"3"
                , "Exit FIFO Depth":"32"
                , "Exit FIFO Width":"8"
                , "Details":"Exit FIFO depth is sized to accommodate all data that may be in-flight in the stall-free cluster; this depth will be equal to or greater than the latency of the cluster.  The width of the FIFO depends on the amount of data that needs to pass from the stall-free logic cluster to the stall-able logic below it."
              }
            ]
            , "type":"inst"
          }
        ]
      }
      , {
        "name":"Loop Input"
        , "id":39
        , "subtype":"default"
        , "details":
        [
          {
            "type":"table"
            , "Instruction":"Loop Input"
            , "Preceding Blocks":"motion_estimation.B7, motion_estimation.B5"
            , "Max Fanout":"0"
          }
        ]
        , "type":"inst"
      }
      , {
        "name":"LD"
        , "id":44
        , "start":"8.00"
        , "end":"798.00"
        , "subtype":"load/store"
        , "details":
        [
          {
            "type":"table"
            , "Instruction":"Load"
            , "Width":"8 bits"
            , "LSU Style":"Burst-coalesced"
            , "Stall-free":"No"
            , "Global Memory":"Yes"
            , "Max Fanout":"1"
            , "Start Cycle":"8"
            , "Latency":"790"
          }
        ]
        , "debug":
        [
          [
            {
              "filename":"/home/u148853/motion_estimation.cl"
              , "line":40
            }
          ]
        ]
        , "type":"inst"
      }
    ]
    , "links":
    [
      {
        "from":401
        , "to":402
      }
      , {
        "from":403
        , "to":404
      }
      , {
        "from":39
        , "to":401
        , "details":
        [
          {
            "type":"table"
            , "Width":"64"
          }
        ]
      }
      , {
        "from":39
        , "to":401
        , "details":
        [
          {
            "type":"table"
            , "Width":"1"
          }
        ]
      }
      , {
        "from":39
        , "to":401
        , "details":
        [
          {
            "type":"table"
            , "Width":"64"
          }
        ]
      }
      , {
        "from":39
        , "to":401
        , "details":
        [
          {
            "type":"table"
            , "Width":"32"
          }
        ]
      }
      , {
        "from":44
        , "to":403
        , "details":
        [
          {
            "type":"table"
            , "Width":"8"
          }
        ]
      }
      , {
        "from":402
        , "to":44
        , "details":
        [
          {
            "type":"table"
            , "Width":"384"
          }
        ]
      }
    ]
  }
  , "10":
  {
    "nodes":
    [
      {
        "name":"Input"
        , "id":46
        , "subtype":"default"
        , "details":
        [
          {
            "type":"table"
            , "Instruction":"Input"
            , "Preceding Blocks":"motion_estimation.B6"
            , "Max Fanout":"0"
          }
        ]
        , "type":"inst"
      }
    ]
    , "links":
    [
    ]
  }
  , "11":
  {
    "nodes":
    [
      {
        "name":"Cluster 8"
        , "id":48
        , "start":"0.00"
        , "end":"8.00"
        , "details":
        [
          {
            "type":"table"
            , "Cluster Name":"i_sfc_s_c0_in_for_cond1_preheader_motion_estimations_c0_enter23324_motion_estimation2"
            , "Cluster Type":"Stall-Free"
            , "Cluster Start Cycle":"0"
            , "Cluster Latency":"8"
          }
        ]
        , "type":"cluster"
        , "children":
        [
          {
            "name":"Logic"
            , "id":405
            , "subtype":"entry"
            , "details":
            [
              {
                "type":"table"
                , "Cluster Logic Start Cycle":"0"
                , "Cluster Logic Latency":"4"
              }
            ]
            , "type":"inst"
          }
          , {
            "name":"Exit"
            , "id":406
            , "subtype":"exit"
            , "details":
            [
              {
                "type":"table"
                , "Max Fanout":"1"
                , "Start Cycle":"4"
                , "Latency":"3"
                , "Exit FIFO Depth":"32"
                , "Exit FIFO Width":"192"
                , "Details":"Exit FIFO depth is sized to accommodate all data that may be in-flight in the stall-free cluster; this depth will be equal to or greater than the latency of the cluster.  The width of the FIFO depends on the amount of data that needs to pass from the stall-free logic cluster to the stall-able logic below it."
              }
            ]
            , "type":"inst"
          }
        ]
      }
      , {
        "name":"Loop Input"
        , "id":47
        , "subtype":"default"
        , "details":
        [
          {
            "type":"table"
            , "Instruction":"Loop Input"
            , "Preceding Blocks":"motion_estimation.B11, motion_estimation.B8"
            , "Max Fanout":"0"
          }
        ]
        , "type":"inst"
      }
      , {
        "name":"wg.limiter.enter"
        , "id":49
        , "start":"8.00"
        , "end":"9.00"
        , "subtype":"default"
        , "details":
        [
          {
            "type":"table"
            , "Instruction":"wg.limiter.enter"
            , "Max Fanout":"2"
            , "Start Cycle":"8"
            , "Latency":"1"
          }
        ]
        , "type":"inst"
      }
    ]
    , "links":
    [
      {
        "from":405
        , "to":406
      }
      , {
        "from":47
        , "to":405
        , "details":
        [
          {
            "type":"table"
            , "Width":"32"
          }
        ]
      }
      , {
        "from":406
        , "to":49
        , "details":
        [
          {
            "type":"table"
            , "Width":"192"
          }
        ]
      }
    ]
  }
  , "12":
  {
    "nodes":
    [
      {
        "name":"Cluster 9"
        , "id":51
        , "start":"0.00"
        , "end":"5.00"
        , "details":
        [
          {
            "type":"table"
            , "Cluster Name":"i_sfc_s_c0_in_for_cond_cleanup_motion_estimations_c0_enter251_motion_estimation0"
            , "Cluster Type":"Stall-Free"
            , "Cluster Start Cycle":"0"
            , "Cluster Latency":"5"
          }
        ]
        , "type":"cluster"
        , "children":
        [
          {
            "name":"Logic"
            , "id":407
            , "subtype":"entry"
            , "details":
            [
              {
                "type":"table"
                , "Cluster Logic Start Cycle":"0"
                , "Cluster Logic Latency":"1"
              }
            ]
            , "type":"inst"
          }
          , {
            "name":"Exit"
            , "id":408
            , "subtype":"exit"
            , "details":
            [
              {
                "type":"table"
                , "Max Fanout":"2"
                , "Start Cycle":"1"
                , "Latency":"3"
                , "Exit FIFO Depth":"32"
                , "Exit FIFO Width":"192"
                , "Details":"Exit FIFO depth is sized to accommodate all data that may be in-flight in the stall-free cluster; this depth will be equal to or greater than the latency of the cluster.  The width of the FIFO depends on the amount of data that needs to pass from the stall-free logic cluster to the stall-able logic below it."
              }
            ]
            , "type":"inst"
          }
        ]
      }
      , {
        "name":"Input"
        , "id":50
        , "subtype":"default"
        , "details":
        [
          {
            "type":"table"
            , "Instruction":"Input"
            , "Preceding Blocks":"motion_estimation.B11"
            , "Max Fanout":"0"
          }
        ]
        , "type":"inst"
      }
      , {
        "name":"ST"
        , "id":52
        , "start":"5.00"
        , "end":"6.00"
        , "subtype":"load/store"
        , "details":
        [
          {
            "type":"table"
            , "Instruction":"Store"
            , "Width":"64 bits"
            , "LSU Style":"Burst-coalesced"
            , "Stall-free":"No"
            , "Global Memory":"Yes"
            , "Max Fanout":"2"
            , "Start Cycle":"5"
            , "Latency":"1"
          }
        ]
        , "debug":
        [
          [
            {
              "filename":"/home/u148853/motion_estimation.cl"
              , "line":77
            }
          ]
        ]
        , "type":"inst"
      }
      , {
        "name":"Feedback"
        , "id":53
        , "start":"6.00"
        , "end":"7.00"
        , "subtype":"push"
        , "details":
        [
          {
            "type":"table"
            , "Instruction":"Feedback Write"
            , "Variable":"Unknown variable"
            , "Feedback FIFO Depth":"1"
            , "Feedback FIFO Width":"1"
            , "Max Fanout":"1"
            , "Start Cycle":"6"
            , "Latency":"1"
          }
        ]
        , "debug":
        [
          [
            {
              "filename":"/home/u148853/motion_estimation.cl"
              , "line":79
            }
          ]
        ]
        , "type":"inst"
      }
    ]
    , "links":
    [
      {
        "from":407
        , "to":408
      }
      , {
        "from":52
        , "to":53
        , "details":
        [
          {
            "type":"table"
            , "Width":"1"
          }
        ]
      }
      , {
        "from":408
        , "to":52
        , "details":
        [
          {
            "type":"table"
            , "Width":"192"
          }
        ]
      }
    ]
  }
  , "13":
  {
    "nodes":
    [
      {
        "name":"Cluster 10"
        , "id":57
        , "start":"0.00"
        , "end":"6.00"
        , "details":
        [
          {
            "type":"table"
            , "Cluster Name":"i_sfc_s_c0_in_for_cond_cleanup3_motion_estimations_c0_enter258_motion_estimation1"
            , "Cluster Type":"Stall-Free"
            , "Cluster Start Cycle":"0"
            , "Cluster Latency":"6"
          }
        ]
        , "type":"cluster"
        , "children":
        [
          {
            "name":"Logic"
            , "id":409
            , "subtype":"entry"
            , "details":
            [
              {
                "type":"table"
                , "Cluster Logic Start Cycle":"0"
                , "Cluster Logic Latency":"2"
              }
            ]
            , "type":"inst"
          }
          , {
            "name":"Exit"
            , "id":410
            , "subtype":"exit"
            , "details":
            [
              {
                "type":"table"
                , "Max Fanout":"2"
                , "Start Cycle":"2"
                , "Latency":"3"
                , "Exit FIFO Depth":"32"
                , "Exit FIFO Width":"8"
                , "Details":"Exit FIFO depth is sized to accommodate all data that may be in-flight in the stall-free cluster; this depth will be equal to or greater than the latency of the cluster.  The width of the FIFO depends on the amount of data that needs to pass from the stall-free logic cluster to the stall-able logic below it."
              }
            ]
            , "type":"inst"
          }
        ]
      }
      , {
        "name":"Input"
        , "id":54
        , "subtype":"default"
        , "details":
        [
          {
            "type":"table"
            , "Instruction":"Input"
            , "Preceding Blocks":"motion_estimation.B14"
            , "Max Fanout":"0"
          }
        ]
        , "type":"inst"
      }
    ]
    , "links":
    [
      {
        "from":409
        , "to":410
      }
      , {
        "from":54
        , "to":409
        , "details":
        [
          {
            "type":"table"
            , "Width":"32"
          }
        ]
      }
    ]
  }
  , "14":
  {
    "nodes":
    [
      {
        "name":"Cluster 11"
        , "id":66
        , "start":"0.00"
        , "end":"8.00"
        , "details":
        [
          {
            "type":"table"
            , "Cluster Name":"i_sfc_s_c0_in_for_body4_motion_estimations_c0_enter26627_motion_estimation9"
            , "Cluster Type":"Stall-Free"
            , "Cluster Start Cycle":"0"
            , "Cluster Latency":"8"
          }
        ]
        , "type":"cluster"
        , "children":
        [
          {
            "name":"Logic"
            , "id":411
            , "subtype":"entry"
            , "details":
            [
              {
                "type":"table"
                , "Cluster Logic Start Cycle":"0"
                , "Cluster Logic Latency":"4"
              }
            ]
            , "type":"inst"
          }
          , {
            "name":"Exit"
            , "id":412
            , "subtype":"exit"
            , "details":
            [
              {
                "type":"table"
                , "Max Fanout":"1"
                , "Start Cycle":"4"
                , "Latency":"3"
                , "Exit FIFO Depth":"32"
                , "Exit FIFO Width":"576"
                , "Details":"Exit FIFO depth is sized to accommodate all data that may be in-flight in the stall-free cluster; this depth will be equal to or greater than the latency of the cluster.  The width of the FIFO depends on the amount of data that needs to pass from the stall-free logic cluster to the stall-able logic below it."
              }
            ]
            , "type":"inst"
          }
        ]
      }
      , {
        "name":"Loop Input"
        , "id":58
        , "subtype":"default"
        , "details":
        [
          {
            "type":"table"
            , "Instruction":"Loop Input"
            , "Preceding Blocks":"motion_estimation.B9, motion_estimation.B14"
            , "Max Fanout":"0"
          }
        ]
        , "type":"inst"
      }
    ]
    , "links":
    [
      {
        "from":411
        , "to":412
      }
      , {
        "from":58
        , "to":411
        , "details":
        [
          {
            "type":"table"
            , "Width":"1"
          }
        ]
      }
      , {
        "from":58
        , "to":411
        , "details":
        [
          {
            "type":"table"
            , "Width":"32"
          }
        ]
      }
      , {
        "from":58
        , "to":411
        , "details":
        [
          {
            "type":"table"
            , "Width":"16"
          }
        ]
      }
      , {
        "from":58
        , "to":411
        , "details":
        [
          {
            "type":"table"
            , "Width":"1"
          }
        ]
      }
      , {
        "from":58
        , "to":411
        , "details":
        [
          {
            "type":"table"
            , "Width":"1"
          }
        ]
      }
      , {
        "from":58
        , "to":411
        , "details":
        [
          {
            "type":"table"
            , "Width":"32"
          }
        ]
      }
      , {
        "from":58
        , "to":411
        , "details":
        [
          {
            "type":"table"
            , "Width":"32"
          }
        ]
      }
      , {
        "from":58
        , "to":411
        , "details":
        [
          {
            "type":"table"
            , "Width":"32"
          }
        ]
      }
    ]
  }
  , "15":
  {
    "nodes":
    [
      {
        "name":"Cluster 12"
        , "id":88
        , "start":"0.00"
        , "end":"14.00"
        , "details":
        [
          {
            "type":"table"
            , "Cluster Name":"i_sfc_s_c0_in_for_cond1_i28_preheader_motion_estimations_c0_enter29830_motion_estimation22"
            , "Cluster Type":"Stall-Free"
            , "Cluster Start Cycle":"0"
            , "Cluster Latency":"14"
          }
        ]
        , "type":"cluster"
        , "children":
        [
          {
            "name":"Logic"
            , "id":413
            , "subtype":"entry"
            , "details":
            [
              {
                "type":"table"
                , "Cluster Logic Start Cycle":"0"
                , "Cluster Logic Latency":"10"
              }
            ]
            , "type":"inst"
          }
          , {
            "name":"Exit"
            , "id":414
            , "subtype":"exit"
            , "details":
            [
              {
                "type":"table"
                , "Max Fanout":"1"
                , "Start Cycle":"10"
                , "Latency":"3"
                , "Exit FIFO Depth":"32"
                , "Exit FIFO Width":"480"
                , "Details":"Exit FIFO depth is sized to accommodate all data that may be in-flight in the stall-free cluster; this depth will be equal to or greater than the latency of the cluster.  The width of the FIFO depends on the amount of data that needs to pass from the stall-free logic cluster to the stall-able logic below it."
              }
            ]
            , "type":"inst"
          }
        ]
      }
      , {
        "name":"Loop Input"
        , "id":67
        , "subtype":"default"
        , "details":
        [
          {
            "type":"table"
            , "Instruction":"Loop Input"
            , "Preceding Blocks":"motion_estimation.B13, motion_estimation.B12"
            , "Max Fanout":"0"
          }
        ]
        , "type":"inst"
      }
    ]
    , "links":
    [
      {
        "from":413
        , "to":414
      }
      , {
        "from":67
        , "to":413
        , "details":
        [
          {
            "type":"table"
            , "Width":"1"
          }
        ]
      }
      , {
        "from":67
        , "to":413
        , "details":
        [
          {
            "type":"table"
            , "Width":"32"
          }
        ]
      }
      , {
        "from":67
        , "to":413
        , "details":
        [
          {
            "type":"table"
            , "Width":"16"
          }
        ]
      }
      , {
        "from":67
        , "to":413
        , "details":
        [
          {
            "type":"table"
            , "Width":"1"
          }
        ]
      }
      , {
        "from":67
        , "to":413
        , "details":
        [
          {
            "type":"table"
            , "Width":"1"
          }
        ]
      }
      , {
        "from":67
        , "to":413
        , "details":
        [
          {
            "type":"table"
            , "Width":"32"
          }
        ]
      }
      , {
        "from":67
        , "to":413
        , "details":
        [
          {
            "type":"table"
            , "Width":"32"
          }
        ]
      }
      , {
        "from":67
        , "to":413
        , "details":
        [
          {
            "type":"table"
            , "Width":"32"
          }
        ]
      }
      , {
        "from":67
        , "to":413
        , "details":
        [
          {
            "type":"table"
            , "Width":"1"
          }
        ]
      }
      , {
        "from":67
        , "to":413
        , "details":
        [
          {
            "type":"table"
            , "Width":"1"
          }
        ]
      }
      , {
        "from":67
        , "to":413
        , "details":
        [
          {
            "type":"table"
            , "Width":"64"
          }
        ]
      }
      , {
        "from":67
        , "to":413
        , "details":
        [
          {
            "type":"table"
            , "Width":"1"
          }
        ]
      }
      , {
        "from":67
        , "to":413
        , "details":
        [
          {
            "type":"table"
            , "Width":"1"
          }
        ]
      }
      , {
        "from":67
        , "to":413
        , "details":
        [
          {
            "type":"table"
            , "Width":"1"
          }
        ]
      }
      , {
        "from":67
        , "to":413
        , "details":
        [
          {
            "type":"table"
            , "Width":"32"
          }
        ]
      }
      , {
        "from":67
        , "to":413
        , "details":
        [
          {
            "type":"table"
            , "Width":"32"
          }
        ]
      }
      , {
        "from":67
        , "to":413
        , "details":
        [
          {
            "type":"table"
            , "Width":"32"
          }
        ]
      }
      , {
        "from":67
        , "to":413
        , "details":
        [
          {
            "type":"table"
            , "Width":"16"
          }
        ]
      }
      , {
        "from":67
        , "to":413
        , "details":
        [
          {
            "type":"table"
            , "Width":"1"
          }
        ]
      }
      , {
        "from":67
        , "to":413
        , "details":
        [
          {
            "type":"table"
            , "Width":"32"
          }
        ]
      }
      , {
        "from":67
        , "to":413
        , "details":
        [
          {
            "type":"table"
            , "Width":"32"
          }
        ]
      }
    ]
  }
  , "16":
  {
    "nodes":
    [
      {
        "name":"Cluster 13"
        , "id":99
        , "start":"0.00"
        , "end":"9.00"
        , "details":
        [
          {
            "type":"table"
            , "Cluster Name":"i_sfc_s_c0_in_for_cond1_i28_preheader_unifiedlatchblock_switch_motion_estimations_c0_enter357_motion_estimation6"
            , "Cluster Type":"Stall-Free"
            , "Cluster Start Cycle":"0"
            , "Cluster Latency":"9"
          }
        ]
        , "type":"cluster"
        , "children":
        [
          {
            "name":"Logic"
            , "id":415
            , "subtype":"entry"
            , "details":
            [
              {
                "type":"table"
                , "Cluster Logic Start Cycle":"0"
                , "Cluster Logic Latency":"5"
              }
            ]
            , "type":"inst"
          }
          , {
            "name":"Exit"
            , "id":416
            , "subtype":"exit"
            , "details":
            [
              {
                "type":"table"
                , "Max Fanout":"2"
                , "Start Cycle":"5"
                , "Latency":"3"
                , "Exit FIFO Depth":"32"
                , "Exit FIFO Width":"8"
                , "Details":"Exit FIFO depth is sized to accommodate all data that may be in-flight in the stall-free cluster; this depth will be equal to or greater than the latency of the cluster.  The width of the FIFO depends on the amount of data that needs to pass from the stall-free logic cluster to the stall-able logic below it."
              }
            ]
            , "type":"inst"
          }
        ]
      }
      , {
        "name":"Input"
        , "id":89
        , "subtype":"default"
        , "details":
        [
          {
            "type":"table"
            , "Instruction":"Input"
            , "Preceding Blocks":"motion_estimation.B13"
            , "Max Fanout":"0"
          }
        ]
        , "type":"inst"
      }
    ]
    , "links":
    [
      {
        "from":415
        , "to":416
      }
      , {
        "from":89
        , "to":415
        , "details":
        [
          {
            "type":"table"
            , "Width":"32"
          }
        ]
      }
      , {
        "from":89
        , "to":415
        , "details":
        [
          {
            "type":"table"
            , "Width":"1"
          }
        ]
      }
      , {
        "from":89
        , "to":415
        , "details":
        [
          {
            "type":"table"
            , "Width":"16"
          }
        ]
      }
      , {
        "from":89
        , "to":415
        , "details":
        [
          {
            "type":"table"
            , "Width":"1"
          }
        ]
      }
      , {
        "from":89
        , "to":415
        , "details":
        [
          {
            "type":"table"
            , "Width":"1"
          }
        ]
      }
      , {
        "from":89
        , "to":415
        , "details":
        [
          {
            "type":"table"
            , "Width":"32"
          }
        ]
      }
    ]
  }
}
