{
  "name":"loop_attributes"
  , "id":4472
  , "nodes":
  [
    {
      "name":"process_frame"
      , "id":1
      , "clk":"No"
      , "fmax":"480.00"
      , "debug":
      [
        [
          {
            "filename":"/home/u148853/process_frame.cl"
            , "line":271
          }
        ]
      ]
      , "type":"kernel"
      , "children":
      [
        {
          "name":"process_frame.B0"
          , "id":2
          , "af":"480.00"
          , "br":"0"
          , "ci":"0"
          , "fo":"Disabled"
          , "ii":"1"
          , "ll":"1"
          , "lt":"5.000000"
          , "mi":"n/a"
          , "pl":"Yes"
          , "tc":"0"
          , "tn":"1"
          , "type":"bb"
        }
        , {
          "name":"process_frame.B1"
          , "id":3
          , "af":"480.00"
          , "br":"1"
          , "ci":"0"
          , "fo":"Enabled"
          , "ii":"1"
          , "ll":"1"
          , "lt":"806.000000"
          , "mi":"1"
          , "pl":"Yes"
          , "tc":"2180100"
          , "tn":"1"
          , "details":
          [
            {
              "type":"text"
              , "text":"Hyper-Optimized loop structure: enabled."
            }
          ]
          , "debug":
          [
            [
              {
                "filename":"/home/u148853/process_frame.cl"
                , "line":33
              }
            ]
          ]
          , "type":"loop"
        }
        , {
          "name":"process_frame.B2"
          , "id":4
          , "af":"480.00"
          , "br":"0"
          , "ci":"0"
          , "fo":"Disabled"
          , "ii":"1"
          , "ll":"1"
          , "lt":"4.000000"
          , "mi":"n/a"
          , "pl":"Yes"
          , "tc":"0"
          , "tn":"1"
          , "type":"bb"
        }
        , {
          "name":"process_frame.B4"
          , "id":6
          , "af":"480.00"
          , "br":"1"
          , "ci":"0"
          , "fo":"Enabled"
          , "ii":"1"
          , "ll":"1"
          , "lt":"806.000000"
          , "mi":"1"
          , "pl":"Yes"
          , "tc":"2180100"
          , "tn":"1"
          , "details":
          [
            {
              "type":"text"
              , "text":"Hyper-Optimized loop structure: enabled."
            }
          ]
          , "debug":
          [
            [
              {
                "filename":"/home/u148853/process_frame.cl"
                , "line":33
              }
            ]
          ]
          , "type":"loop"
        }
        , {
          "name":"process_frame.B3"
          , "id":5
          , "af":"480.00"
          , "br":"0"
          , "ci":"0"
          , "fo":"Disabled"
          , "ii":"1"
          , "ll":"1"
          , "lt":"0.000000"
          , "mi":"n/a"
          , "pl":"Yes"
          , "tc":"0"
          , "tn":"1"
          , "type":"bb"
        }
        , {
          "name":"process_frame.B5"
          , "id":7
          , "af":"480.00"
          , "br":"0"
          , "ci":"0"
          , "fo":"Disabled"
          , "ii":"n/a"
          , "ll":"1"
          , "lt":"7.000000"
          , "mi":"n/a"
          , "pl":"No"
          , "tc":"0"
          , "tn":"1"
          , "details":
          [
            {
              "type":"text"
              , "text":"Hyper-Optimized loop structure: disabled."
              , "details":
              [
                {
                  "type":"text"
                  , "text":"Hyper-Optimized loop structure is disabled due to loop not pipelined"
                }
              ]
            }
          ]
          , "debug":
          [
            [
              {
                "filename":"/home/u148853/process_frame.cl"
                , "line":280
              }
            ]
          ]
          , "type":"loop"
          , "children":
          [
            {
              "name":"process_frame.B8"
              , "id":10
              , "af":"480.00"
              , "br":"0"
              , "ci":"0"
              , "fo":"Disabled"
              , "ii":"n/a"
              , "ll":"2"
              , "lt":"6.000000"
              , "mi":"1"
              , "pl":"No"
              , "tc":"0"
              , "tn":"1"
              , "details":
              [
                {
                  "type":"text"
                  , "text":"Hyper-Optimized loop structure: disabled."
                  , "details":
                  [
                    {
                      "type":"text"
                      , "text":"Hyper-Optimized loop structure is disabled due to loop not pipelined"
                    }
                  ]
                }
              ]
              , "debug":
              [
                [
                  {
                    "filename":"/home/u148853/process_frame.cl"
                    , "line":282
                  }
                ]
              ]
              , "type":"loop"
              , "children":
              [
                {
                  "name":"process_frame.B9"
                  , "id":11
                  , "af":"480.00"
                  , "br":"1"
                  , "ci":"0"
                  , "fo":"Enabled"
                  , "ii":"1"
                  , "ll":"3"
                  , "lt":"21.000000"
                  , "mi":"1"
                  , "pl":"Yes"
                  , "tc":"256"
                  , "tn":"1"
                  , "details":
                  [
                    {
                      "type":"text"
                      , "text":"Hyper-Optimized loop structure: enabled."
                    }
                  ]
                  , "debug":
                  [
                    [
                      {
                        "filename":"/home/u148853/process_frame.cl"
                        , "line":42
                      }
                    ]
                  ]
                  , "type":"loop"
                }
                , {
                  "name":"process_frame.B10"
                  , "id":12
                  , "af":"480.00"
                  , "br":"0"
                  , "ci":"0"
                  , "fo":"Disabled"
                  , "ii":"1"
                  , "ll":"3"
                  , "lt":"8.000000"
                  , "mi":"n/a"
                  , "pl":"Yes"
                  , "tc":"0"
                  , "tn":"1"
                  , "type":"bb"
                }
                , {
                  "name":"process_frame.B11"
                  , "id":13
                  , "af":"480.00"
                  , "br":"1"
                  , "ci":"0"
                  , "fo":"Enabled"
                  , "ii":"1"
                  , "ll":"3"
                  , "lt":"23.000000"
                  , "mi":"1"
                  , "pl":"Yes"
                  , "tc":"2116"
                  , "tn":"1"
                  , "details":
                  [
                    {
                      "type":"text"
                      , "text":"Hyper-Optimized loop structure: enabled."
                    }
                  ]
                  , "debug":
                  [
                    [
                      {
                        "filename":"/home/u148853/process_frame.cl"
                        , "line":54
                      }
                    ]
                  ]
                  , "type":"loop"
                }
                , {
                  "name":"process_frame.B12"
                  , "id":14
                  , "af":"480.00"
                  , "br":"0"
                  , "ci":"0"
                  , "fo":"Disabled"
                  , "ii":"1"
                  , "ll":"3"
                  , "lt":"19.000000"
                  , "mi":"n/a"
                  , "pl":"Yes"
                  , "tc":"0"
                  , "tn":"1"
                  , "type":"bb"
                }
                , {
                  "name":"process_frame.B13"
                  , "id":15
                  , "af":"480.00"
                  , "br":"0"
                  , "ci":"0"
                  , "fo":"Disabled"
                  , "ii":"n/a"
                  , "ll":"3"
                  , "lt":"8.000000"
                  , "mi":"n/a"
                  , "pl":"No"
                  , "tc":"0"
                  , "tn":"1"
                  , "details":
                  [
                    {
                      "type":"text"
                      , "text":"Hyper-Optimized loop structure: disabled."
                      , "details":
                      [
                        {
                          "type":"text"
                          , "text":"Hyper-Optimized loop structure is disabled due to loop not pipelined"
                        }
                      ]
                    }
                  ]
                  , "debug":
                  [
                    [
                      {
                        "filename":"/home/u148853/process_frame.cl"
                        , "line":79
                      }
                    ]
                  ]
                  , "type":"loop"
                  , "children":
                  [
                    {
                      "name":"process_frame.B15"
                      , "id":17
                      , "af":"480.00"
                      , "br":"1"
                      , "ci":"0"
                      , "fo":"Enabled"
                      , "ii":"1"
                      , "ll":"4"
                      , "lt":"28.000000"
                      , "mi":"1"
                      , "pl":"Yes"
                      , "tc":"0"
                      , "tn":"1"
                      , "details":
                      [
                        {
                          "type":"text"
                          , "text":"Hyper-Optimized loop structure: enabled."
                        }
                      ]
                      , "debug":
                      [
                        [
                          {
                            "filename":"/home/u148853/process_frame.cl"
                            , "line":83
                          }
                        ]
                      ]
                      , "type":"loop"
                    }
                  ]
                }
                , {
                  "name":"process_frame.B14"
                  , "id":16
                  , "af":"480.00"
                  , "br":"1"
                  , "ci":"0"
                  , "fo":"Disabled"
                  , "ii":"1"
                  , "ll":"3"
                  , "lt":"10.000000"
                  , "mi":"n/a"
                  , "pl":"Yes"
                  , "tc":"0"
                  , "tn":"1"
                  , "type":"bb"
                }
                , {
                  "name":"process_frame.B16"
                  , "id":18
                  , "af":"480.00"
                  , "br":"0"
                  , "ci":"0"
                  , "fo":"Disabled"
                  , "ii":"1"
                  , "ll":"3"
                  , "lt":"7.000000"
                  , "mi":"n/a"
                  , "pl":"Yes"
                  , "tc":"0"
                  , "tn":"1"
                  , "type":"bb"
                }
                , {
                  "name":"process_frame.B18"
                  , "id":20
                  , "af":"480.00"
                  , "br":"1"
                  , "ci":"0"
                  , "fo":"Enabled"
                  , "ii":"1"
                  , "ll":"3"
                  , "lt":"26.000000"
                  , "mi":"1"
                  , "pl":"Yes"
                  , "tc":"0"
                  , "tn":"1"
                  , "details":
                  [
                    {
                      "type":"text"
                      , "text":"Hyper-Optimized loop structure: enabled."
                    }
                  ]
                  , "debug":
                  [
                    [
                      {
                        "filename":"/home/u148853/process_frame.cl"
                        , "line":224
                      }
                    ]
                  ]
                  , "type":"loop"
                }
              ]
            }
            , {
              "name":"process_frame.B17"
              , "id":19
              , "af":"480.00"
              , "br":"1"
              , "ci":"0"
              , "fo":"Disabled"
              , "ii":"1"
              , "ll":"2"
              , "lt":"10.000000"
              , "mi":"n/a"
              , "pl":"Yes"
              , "tc":"120"
              , "tn":"1"
              , "type":"bb"
            }
          ]
        }
        , {
          "name":"process_frame.B7"
          , "id":9
          , "af":"480.00"
          , "br":"1"
          , "ci":"0"
          , "fo":"Disabled"
          , "ii":"1"
          , "ll":"1"
          , "lt":"6.000000"
          , "mi":"n/a"
          , "pl":"Yes"
          , "tc":"68"
          , "tn":"1"
          , "type":"bb"
        }
        , {
          "name":"process_frame.B6"
          , "id":8
          , "af":"480.00"
          , "br":"0"
          , "ci":"0"
          , "fo":"Disabled"
          , "ii":"1"
          , "ll":"1"
          , "lt":"1.000000"
          , "mi":"n/a"
          , "pl":"Yes"
          , "tc":"0"
          , "tn":"1"
          , "type":"bb"
        }
      ]
    }
  ]
}
