{
  "columns":
  ["", "ALUTs", "FFs", "RAMs", "DSPs", "MLABs", "Details"]
  , "debug_enabled":"true"
  , "type":"module"
  , "total_percent":
  [50.2081, 26.0611, 25.6951, 28.4361, 22.4479]
  , "total":
  [485463, 959066, 3333, 1293, 45]
  , "name":"Kernel System"
  , "max_resources":
  [1866240, 3732480, 11721, 5760, 93312]
  , "children":
  [
    {
      "name":"Static Partition"
      , "type":"partition"
      , "children":
      [
        {
          "name":"Board interface"
          , "type":"resource"
          , "data":
          [466792, 928428, 3039, 1291, 0]
          , "details":
          [
            {
              "type":"text"
              , "text":"Platform interface logic."
            }
          ]
        }
      ]
    }
    , {
      "name":"Global interconnect"
      , "type":"resource"
      , "data":
      [13691, 19807, 78, 0, 0]
      , "details":
      [
        {
          "type":"text"
          , "text":"Global interconnect for 2 global loads and 1 global store. Reduce number of global loads and stores to simplify global interconnect."
        }
        , {
          "type":"brief"
          , "text":"For 2 global loads and 1 global store."
        }
        , {
          "type":"text"
          , "text":"See %L for more information"
          , "links":
          [
            {
              "guide":"Best Practices Guide : Global Memory Interconnect"
              , "link":"file:////glob/development-tools/versions/oneapi/2022.1.2/oneapi/compiler/2022.0.2/linux/lib/oclfpga/aoc_help_pages/hnj1476724450050.html"
            }
          ]
        }
      ]
    }
    , {
      "name":"System description ROM"
      , "type":"resource"
      , "data":
      [2, 71, 2, 0, 0]
      , "details":
      [
        {
          "type":"text"
          , "text":"This read-only memory contains information for the host about the system and about each kernel in the system, including kernel names, arguments, and attributes. The system description ROM ensures that the binary image on the FPGA is compatible with the host program."
        }
        , {
          "type":"brief"
          , "text":"Contains information for the host."
        }
      ]
    }
    , {
      "name":"motion_estimation"
      , "compute_units":1
      , "type":"function"
      , "total_percent":
      [0.582309, 0.314965, 0.28828, 1.82578, 0.0347222]
      , "total_kernel_resources":
      [4978, 10760, 214, 1.5, 45]
      , "details":
      [
        {
          "type":"text"
          , "text":"Number of compute units: 1"
        }
        , {
          "type":"text"
          , "text":"Max global work dimension: 0"
        }
        , {
          "type":"text"
          , "text":"Kernel attribute 'uses_global_work_offset' not specified. Add '__attribute__((uses_global_work_offset(0)))' to reduce area utilization if the kernel will always be enqueued with a 0 or NULL global_work_offset argument in clEnqueueNDRangeKernel. Add '__attribute__((uses_global_work_offset(1)))' to hide this suggestion without affecting kernel functionality."
        }
        , {
          "type":"brief"
          , "text":"1 compute unit.\nMax global work dimension: 0\nKernel attribute 'uses_global_work_offset' not specified. Add '__attribute__((uses_global_work_offset(0)))' to reduce area utilization if the kernel will always be enqueued with a 0 or NULL global_work_offset argument in clEnqueueNDRangeKernel. Add '__attribute__((uses_global_work_offset(1)))' to hide this suggestion without affecting kernel functionality."
        }
      ]
      , "children":
      [
        {
          "name":"Private Variable: \n - '_' (motion_estimation.cl:8)"
          , "type":"resource"
          , "data":
          [8, 64, 0, 0, 0]
          , "debug":
          [
            [
              {
                "filename":"motion_estimation.cl"
                , "line":8
              }
            ]
          ]
          , "details":
          [
            {
              "type":"text"
              , "text":"Type: Register"
            }
            , {
              "type":"text"
              , "text":"1 register of width 32 bits"
            }
            , {
              "type":"brief"
              , "text":"Register,\n1 reg, 32 width"
            }
          ]
        }
        , {
          "name":"Private Variable: \n - 'i' (motion_estimation.cl:29)"
          , "type":"resource"
          , "data":
          [7, 9, 0, 0, 0]
          , "debug":
          [
            [
              {
                "filename":"motion_estimation.cl"
                , "line":29
              }
            ]
          ]
          , "details":
          [
            {
              "type":"text"
              , "text":"Type: Register"
            }
            , {
              "type":"text"
              , "text":"1 register of width 5 bits and depth 1"
            }
            , {
              "type":"brief"
              , "text":"Register,\n1 reg, 5 width by 1 depth"
            }
          ]
        }
        , {
          "name":"Private Variable: \n - 'j' (motion_estimation.cl:27)"
          , "type":"resource"
          , "data":
          [7, 9, 0, 0, 0]
          , "debug":
          [
            [
              {
                "filename":"motion_estimation.cl"
                , "line":27
              }
            ]
          ]
          , "details":
          [
            {
              "type":"text"
              , "text":"Type: Register"
            }
            , {
              "type":"text"
              , "text":"1 register of width 5 bits and depth 1"
            }
            , {
              "type":"brief"
              , "text":"Register,\n1 reg, 5 width by 1 depth"
            }
          ]
        }
        , {
          "name":"Private Variable: \n - 'sad' (motion_estimation.cl:5)"
          , "type":"resource"
          , "data":
          [9, 96, 0, 0, 0]
          , "debug":
          [
            [
              {
                "filename":"motion_estimation.cl"
                , "line":5
              }
            ]
          ]
          , "details":
          [
            {
              "type":"text"
              , "text":"Type: Register"
            }
            , {
              "type":"text"
              , "text":"1 register of width 32 bits"
            }
            , {
              "type":"brief"
              , "text":"Register,\n1 reg, 32 width"
            }
          ]
        }
        , {
          "name":"motion_estimation.cl:36 (act_block)"
          , "type":"resource"
          , "data":
          [0, 0, 64, 0, 0]
          , "debug":
          [
            [
              {
                "filename":"motion_estimation.cl"
                , "line":36
              }
            ]
          ]
          , "details":
          [
            {
              "type":"table"
              , "Local memory":"Stall-free"
              , "Requested size":"16384 bytes"
              , "Implemented size":"131072 bytes"
              , "Memory Usage":"64 RAMs"
              , "Number of banks":"1"
              , "Bank width":"8 bits"
              , "Bank depth":"16384 words"
              , "Number of replicates":"8"
              , "Number of private copies":"1"
              , "Additional information":
              [
                {
                  "type":"text"
                  , "text":"Requested size 16384 bytes, implemented size 131072 bytes, stall-free, 16 reads and 1 write. "
                }
                , {
                  "type":"text"
                  , "text":"For each bank, 8 replicates were created to efficiently support multiple accesses. To reduce this factor, reduce number of read and write accesses."
                }
              ]
              , "Reference":
              [
                {
                  "type":"text"
                  , "text":"See %L for more information."
                  , "links":
                  [
                    {
                      "guide":"Best Practices Guide : Local Memory"
                      , "link":"file:////glob/development-tools/versions/oneapi/2022.1.2/oneapi/compiler/2022.0.2/linux/lib/oclfpga/aoc_help_pages/chn1469549457114.html"
                    }
                  ]
                }
              ]
            }
            , {
              "type":"brief"
              , "text":"Stall-free,\n16384B requested,\n131072B implemented."
            }
          ]
        }
        , {
          "name":"motion_estimation.cl:36 (search_area)"
          , "type":"resource"
          , "data":
          [0, 0, 64, 0, 0]
          , "debug":
          [
            [
              {
                "filename":"motion_estimation.cl"
                , "line":36
              }
            ]
          ]
          , "details":
          [
            {
              "type":"table"
              , "Local memory":"Stall-free"
              , "Requested size":"16384 bytes"
              , "Implemented size":"131072 bytes"
              , "Memory Usage":"64 RAMs"
              , "Number of banks":"1"
              , "Bank width":"8 bits"
              , "Bank depth":"16384 words"
              , "Number of replicates":"8"
              , "Number of private copies":"1"
              , "Additional information":
              [
                {
                  "type":"text"
                  , "text":"Requested size 16384 bytes, implemented size 131072 bytes, stall-free, 16 reads and 1 write. "
                }
                , {
                  "type":"text"
                  , "text":"For each bank, 8 replicates were created to efficiently support multiple accesses. To reduce this factor, reduce number of read and write accesses."
                }
              ]
              , "Reference":
              [
                {
                  "type":"text"
                  , "text":"See %L for more information."
                  , "links":
                  [
                    {
                      "guide":"Best Practices Guide : Local Memory"
                      , "link":"file:////glob/development-tools/versions/oneapi/2022.1.2/oneapi/compiler/2022.0.2/linux/lib/oclfpga/aoc_help_pages/chn1469549457114.html"
                    }
                  ]
                }
              ]
            }
            , {
              "type":"brief"
              , "text":"Stall-free,\n16384B requested,\n131072B implemented."
            }
          ]
        }
        , {
          "name":"motion_estimation.B0"
          , "type":"basicblock"
          , "children":
          [
            {
              "name":"State"
              , "type":"resource"
              , "data":
              [43, 317, 0, 0, 2]
              , "details":
              [
                {
                  "type":"brief"
                  , "text":"Live values and control logic"
                }
                , {
                  "type":"text"
                  , "text":"Resources for live values and control logic. To reduce this area:"
                  , "details":
                  [
                    {
                      "type":"text"
                      , "text":"reduce size of local variables"
                    }
                    , {
                      "type":"text"
                      , "text":"reduce scope of local variables, localizing them as much as possible"
                    }
                    , {
                      "type":"text"
                      , "text":"reduce number of nested loops"
                    }
                  ]
                }
              ]
              , "children":
              [
                {
                  "name":"No Source Line"
                  , "type":"resource"
                  , "data":
                  [43, 189, 0, 0, 2]
                }
                , {
                  "name":"motion_estimation.cl:42 > motion_estimation.cl:25"
                  , "type":"resource"
                  , "data":
                  [0, 64, 0, 0, 0]
                  , "debug":
                  [
                    [
                      {
                        "filename":"/home/u148853/motion_estimation.cl"
                        , "line":42
                      }
                      , {
                        "filename":"/home/u148853/motion_estimation.cl"
                        , "line":25
                      }
                    ]
                  ]
                }
                , {
                  "name":"motion_estimation.cl:46 > motion_estimation.cl:25"
                  , "type":"resource"
                  , "data":
                  [0, 64, 0, 0, 0]
                  , "debug":
                  [
                    [
                      {
                        "filename":"/home/u148853/motion_estimation.cl"
                        , "line":46
                      }
                      , {
                        "filename":"/home/u148853/motion_estimation.cl"
                        , "line":25
                      }
                    ]
                  ]
                }
              ]
            }
            , {
              "name":"Feedback"
              , "type":"resource"
              , "data":
              [7, 2, 0, 0, 0]
              , "details":
              [
                {
                  "type":"brief"
                  , "text":"Loop-carried dependencies"
                }
                , {
                  "type":"text"
                  , "text":"Resources for loop-carried dependencies. To reduce this area:"
                  , "details":
                  [
                    {
                      "type":"text"
                      , "text":"reduce number and size of loop-carried variables"
                    }
                  ]
                }
              ]
              , "children":
              [
                {
                  "name":"No Source Line"
                  , "type":"resource"
                  , "data":
                  [7, 2, 0, 0, 0]
                }
              ]
            }
            , {
              "name":"Cluster logic"
              , "type":"resource"
              , "data":
              [10, 8, 0, 0, 1]
              , "details":
              [
                {
                  "type":"brief"
                  , "text":"Logic required to efficiently support sets of operations that do not stall"
                }
                , {
                  "type":"text"
                  , "text":"Logic required to efficiently support sets of operations that do not stall. This area cannot be affected directly."
                }
              ]
            }
            , {
              "name":"Computation"
              , "type":"resource"
              , "children":
              [
                {
                  "name":"motion_estimation.cl:42 > motion_estimation.cl:25"
                  , "type":"resource"
                  , "data":
                  [151, 46, 0, 1.5, 0]
                  , "debug":
                  [
                    [
                      {
                        "filename":"/home/u148853/motion_estimation.cl"
                        , "line":42
                      }
                      , {
                        "filename":"/home/u148853/motion_estimation.cl"
                        , "line":25
                      }
                    ]
                  ]
                  , "children":
                  [
                    {
                      "name":"32-bit Integer Add"
                      , "type":"resource"
                      , "count":1
                      , "data":
                      [32, 0, 0, 0, 0]
                    }
                    , {
                      "name":"32-bit Integer Multiply"
                      , "type":"resource"
                      , "count":1
                      , "data":
                      [55, 46, 0, 1.5, 0]
                    }
                    , {
                      "name":"Pointer Computation"
                      , "type":"resource"
                      , "count":1
                      , "data":
                      [64, 0, 0, 0, 0]
                    }
                  ]
                  , "replace_name":"true"
                }
                , {
                  "name":"motion_estimation.cl:46 > motion_estimation.cl:25"
                  , "type":"resource"
                  , "data":
                  [64, 0, 0, 0, 0]
                  , "debug":
                  [
                    [
                      {
                        "filename":"/home/u148853/motion_estimation.cl"
                        , "line":46
                      }
                      , {
                        "filename":"/home/u148853/motion_estimation.cl"
                        , "line":25
                      }
                    ]
                  ]
                  , "children":
                  [
                    {
                      "name":"Pointer Computation"
                      , "type":"resource"
                      , "count":1
                      , "data":
                      [64, 0, 0, 0, 0]
                    }
                  ]
                  , "replace_name":"true"
                }
              ]
            }
          ]
        }
        , {
          "name":"motion_estimation.B1"
          , "type":"basicblock"
          , "children":
          [
            {
              "name":"State"
              , "type":"resource"
              , "data":
              [96, 293, 0, 0, 0]
              , "details":
              [
                {
                  "type":"brief"
                  , "text":"Live values and control logic"
                }
                , {
                  "type":"text"
                  , "text":"Resources for live values and control logic. To reduce this area:"
                  , "details":
                  [
                    {
                      "type":"text"
                      , "text":"reduce size of local variables"
                    }
                    , {
                      "type":"text"
                      , "text":"reduce scope of local variables, localizing them as much as possible"
                    }
                    , {
                      "type":"text"
                      , "text":"reduce number of nested loops"
                    }
                  ]
                }
              ]
              , "children":
              [
                {
                  "name":"No Source Line"
                  , "type":"resource"
                  , "data":
                  [96, 293, 0, 0, 0]
                }
              ]
            }
            , {
              "name":"Feedback"
              , "type":"resource"
              , "data":
              [48, 315, 0, 0, 0]
              , "details":
              [
                {
                  "type":"brief"
                  , "text":"Loop-carried dependencies"
                }
                , {
                  "type":"text"
                  , "text":"Resources for loop-carried dependencies. To reduce this area:"
                  , "details":
                  [
                    {
                      "type":"text"
                      , "text":"reduce number and size of loop-carried variables"
                    }
                  ]
                }
              ]
              , "children":
              [
                {
                  "name":"No Source Line"
                  , "type":"resource"
                  , "data":
                  [41, 308, 0, 0, 0]
                }
                , {
                  "name":"motion_estimation.cl:46 > motion_estimation.cl:27"
                  , "type":"resource"
                  , "data":
                  [7, 7, 0, 0, 0]
                  , "debug":
                  [
                    [
                      {
                        "filename":"/home/u148853/motion_estimation.cl"
                        , "line":46
                      }
                      , {
                        "filename":"/home/u148853/motion_estimation.cl"
                        , "line":27
                      }
                    ]
                  ]
                }
              ]
            }
            , {
              "name":"Cluster logic"
              , "type":"resource"
              , "data":
              [156, 298, 0, 0, 15]
              , "details":
              [
                {
                  "type":"brief"
                  , "text":"Logic required to efficiently support sets of operations that do not stall"
                }
                , {
                  "type":"text"
                  , "text":"Logic required to efficiently support sets of operations that do not stall. This area cannot be affected directly."
                }
              ]
            }
            , {
              "name":"Computation"
              , "type":"resource"
              , "children":
              [
                {
                  "name":"No Source Line"
                  , "type":"resource"
                  , "data":
                  [230, 0, 0, 0, 0]
                  , "debug":
                  [
                    [
                      {
                        "filename":""
                        , "line":0
                      }
                    ]
                  ]
                  , "children":
                  [
                    {
                      "name":"Pointer Computation"
                      , "type":"resource"
                      , "count":6
                      , "data":
                      [128, 0, 0, 0, 0]
                    }
                    , {
                      "name":"Select"
                      , "type":"resource"
                      , "count":2
                      , "data":
                      [102, 0, 0, 0, 0]
                    }
                  ]
                }
                , {
                  "name":"motion_estimation.cl:46 > motion_estimation.cl:27"
                  , "type":"resource"
                  , "data":
                  [2, 0, 0, 0, 0]
                  , "debug":
                  [
                    [
                      {
                        "filename":"/home/u148853/motion_estimation.cl"
                        , "line":46
                      }
                      , {
                        "filename":"/home/u148853/motion_estimation.cl"
                        , "line":27
                      }
                    ]
                  ]
                  , "children":
                  [
                    {
                      "name":"5-bit Integer Compare"
                      , "type":"resource"
                      , "count":1
                      , "data":
                      [2, 0, 0, 0, 0]
                    }
                  ]
                  , "replace_name":"true"
                }
              ]
            }
          ]
        }
        , {
          "name":"motion_estimation.B2"
          , "type":"basicblock"
          , "children":
          [
            {
              "name":"State"
              , "type":"resource"
              , "data":
              [132, 582, 11, 0, 0]
              , "details":
              [
                {
                  "type":"brief"
                  , "text":"Live values and control logic"
                }
                , {
                  "type":"text"
                  , "text":"Resources for live values and control logic. To reduce this area:"
                  , "details":
                  [
                    {
                      "type":"text"
                      , "text":"reduce size of local variables"
                    }
                    , {
                      "type":"text"
                      , "text":"reduce scope of local variables, localizing them as much as possible"
                    }
                    , {
                      "type":"text"
                      , "text":"reduce number of nested loops"
                    }
                  ]
                }
              ]
              , "children":
              [
                {
                  "name":"No Source Line"
                  , "type":"resource"
                  , "data":
                  [132, 582, 11, 0, 0]
                }
              ]
            }
            , {
              "name":"Feedback"
              , "type":"resource"
              , "data":
              [64, 356, 0, 0, 0]
              , "details":
              [
                {
                  "type":"brief"
                  , "text":"Loop-carried dependencies"
                }
                , {
                  "type":"text"
                  , "text":"Resources for loop-carried dependencies. To reduce this area:"
                  , "details":
                  [
                    {
                      "type":"text"
                      , "text":"reduce number and size of loop-carried variables"
                    }
                  ]
                }
              ]
              , "children":
              [
                {
                  "name":"No Source Line"
                  , "type":"resource"
                  , "data":
                  [49, 344, 0, 0, 0]
                }
                , {
                  "name":"motion_estimation.cl:46 > motion_estimation.cl:27"
                  , "type":"resource"
                  , "data":
                  [8, 5, 0, 0, 0]
                  , "debug":
                  [
                    [
                      {
                        "filename":"/home/u148853/motion_estimation.cl"
                        , "line":46
                      }
                      , {
                        "filename":"/home/u148853/motion_estimation.cl"
                        , "line":27
                      }
                    ]
                  ]
                }
                , {
                  "name":"motion_estimation.cl:46 > motion_estimation.cl:29"
                  , "type":"resource"
                  , "data":
                  [7, 7, 0, 0, 0]
                  , "debug":
                  [
                    [
                      {
                        "filename":"/home/u148853/motion_estimation.cl"
                        , "line":46
                      }
                      , {
                        "filename":"/home/u148853/motion_estimation.cl"
                        , "line":29
                      }
                    ]
                  ]
                }
              ]
            }
            , {
              "name":"Cluster logic"
              , "type":"resource"
              , "data":
              [184, 340, 0, 0, 18]
              , "details":
              [
                {
                  "type":"brief"
                  , "text":"Logic required to efficiently support sets of operations that do not stall"
                }
                , {
                  "type":"text"
                  , "text":"Logic required to efficiently support sets of operations that do not stall. This area cannot be affected directly."
                }
              ]
            }
            , {
              "name":"Computation"
              , "type":"resource"
              , "children":
              [
                {
                  "name":"motion_estimation.cl:42 > motion_estimation.cl:29"
                  , "type":"resource"
                  , "data":
                  [718, 2242, 29, 0, 1]
                  , "debug":
                  [
                    [
                      {
                        "filename":"/home/u148853/motion_estimation.cl"
                        , "line":42
                      }
                      , {
                        "filename":"/home/u148853/motion_estimation.cl"
                        , "line":29
                      }
                    ]
                  ]
                  , "children":
                  [
                    {
                      "name":"Load"
                      , "type":"resource"
                      , "count":1
                      , "data":
                      [684, 2218, 29, 0, 1]
                      , "details":
                      [
                        {
                          "type":"text"
                          , "text":"Load uses a Burst-coalesced LSU"
                        }
                        , {
                          "type":"brief"
                          , "text":"Burst-coalesced LSU"
                        }
                      ]
                    }
                    , {
                      "name":"Store"
                      , "type":"resource"
                      , "count":1
                      , "data":
                      [34, 24, 0, 0, 0]
                      , "details":
                      [
                        {
                          "type":"text"
                          , "text":"Store uses a Pipelined never-stall LSU"
                        }
                        , {
                          "type":"brief"
                          , "text":"Pipelined never-stall LSU"
                        }
                        , {
                          "type":"text"
                          , "text":"Stall-free write to memory declared on %L."
                          , "links":
                          [
                            {
                              "filename":"motion_estimation.cl"
                              , "line":"36"
                            }
                          ]
                        }
                        , {
                          "type":"text"
                          , "text":"See %L for more information"
                          , "links":
                          [
                            {
                              "guide":"Best Practices Guide : Load-Store Units"
                              , "link":"file:////glob/development-tools/versions/oneapi/2022.1.2/oneapi/compiler/2022.0.2/linux/lib/oclfpga/aoc_help_pages/yeo1491314105959.html"
                            }
                          ]
                        }
                      ]
                    }
                  ]
                  , "replace_name":"true"
                }
                , {
                  "name":"motion_estimation.cl:46 > motion_estimation.cl:29"
                  , "type":"resource"
                  , "data":
                  [720, 2242, 29, 0, 1]
                  , "debug":
                  [
                    [
                      {
                        "filename":"/home/u148853/motion_estimation.cl"
                        , "line":46
                      }
                      , {
                        "filename":"/home/u148853/motion_estimation.cl"
                        , "line":29
                      }
                    ]
                  ]
                  , "children":
                  [
                    {
                      "name":"5-bit Integer Compare"
                      , "type":"resource"
                      , "count":1
                      , "data":
                      [2, 0, 0, 0, 0]
                    }
                    , {
                      "name":"Load"
                      , "type":"resource"
                      , "count":1
                      , "data":
                      [684, 2218, 29, 0, 1]
                      , "details":
                      [
                        {
                          "type":"text"
                          , "text":"Load uses a Burst-coalesced LSU"
                        }
                        , {
                          "type":"brief"
                          , "text":"Burst-coalesced LSU"
                        }
                      ]
                    }
                    , {
                      "name":"Store"
                      , "type":"resource"
                      , "count":1
                      , "data":
                      [34, 24, 0, 0, 0]
                      , "details":
                      [
                        {
                          "type":"text"
                          , "text":"Store uses a Pipelined never-stall LSU"
                        }
                        , {
                          "type":"brief"
                          , "text":"Pipelined never-stall LSU"
                        }
                        , {
                          "type":"text"
                          , "text":"Stall-free write to memory declared on %L."
                          , "links":
                          [
                            {
                              "filename":"motion_estimation.cl"
                              , "line":"36"
                            }
                          ]
                        }
                        , {
                          "type":"text"
                          , "text":"See %L for more information"
                          , "links":
                          [
                            {
                              "guide":"Best Practices Guide : Load-Store Units"
                              , "link":"file:////glob/development-tools/versions/oneapi/2022.1.2/oneapi/compiler/2022.0.2/linux/lib/oclfpga/aoc_help_pages/yeo1491314105959.html"
                            }
                          ]
                        }
                      ]
                    }
                  ]
                  , "replace_name":"true"
                }
              ]
            }
          ]
        }
        , {
          "name":"motion_estimation.B5"
          , "type":"basicblock"
          , "children":
          [
            {
              "name":"State"
              , "type":"resource"
              , "data":
              [38, 764, 0, 0, 0]
              , "details":
              [
                {
                  "type":"brief"
                  , "text":"Live values and control logic"
                }
                , {
                  "type":"text"
                  , "text":"Resources for live values and control logic. To reduce this area:"
                  , "details":
                  [
                    {
                      "type":"text"
                      , "text":"reduce size of local variables"
                    }
                    , {
                      "type":"text"
                      , "text":"reduce scope of local variables, localizing them as much as possible"
                    }
                    , {
                      "type":"text"
                      , "text":"reduce number of nested loops"
                    }
                  ]
                }
              ]
              , "children":
              [
                {
                  "name":"No Source Line"
                  , "type":"resource"
                  , "data":
                  [38, 731, 0, 0, 0]
                }
                , {
                  "name":"motion_estimation.cl:48 > motion_estimation.cl:12"
                  , "type":"resource"
                  , "data":
                  [0, 32, 0, 0, 0]
                  , "debug":
                  [
                    [
                      {
                        "filename":"/home/u148853/motion_estimation.cl"
                        , "line":48
                      }
                      , {
                        "filename":"/home/u148853/motion_estimation.cl"
                        , "line":12
                      }
                    ]
                  ]
                }
                , {
                  "name":"motion_estimation.cl:48 > motion_estimation.cl:16"
                  , "type":"resource"
                  , "data":
                  [0, 1, 0, 0, 0]
                  , "debug":
                  [
                    [
                      {
                        "filename":"/home/u148853/motion_estimation.cl"
                        , "line":48
                      }
                      , {
                        "filename":"/home/u148853/motion_estimation.cl"
                        , "line":16
                      }
                    ]
                  ]
                }
              ]
            }
            , {
              "name":"Feedback"
              , "type":"resource"
              , "data":
              [198, 585, 0, 0, 0]
              , "details":
              [
                {
                  "type":"brief"
                  , "text":"Loop-carried dependencies"
                }
                , {
                  "type":"text"
                  , "text":"Resources for loop-carried dependencies. To reduce this area:"
                  , "details":
                  [
                    {
                      "type":"text"
                      , "text":"reduce number and size of loop-carried variables"
                    }
                  ]
                }
              ]
              , "children":
              [
                {
                  "name":"No Source Line"
                  , "type":"resource"
                  , "data":
                  [125, 519, 0, 0, 0]
                }
                , {
                  "name":"motion_estimation.cl:48 > motion_estimation.cl:5"
                  , "type":"resource"
                  , "data":
                  [32, 32, 0, 0, 0]
                  , "debug":
                  [
                    [
                      {
                        "filename":"/home/u148853/motion_estimation.cl"
                        , "line":48
                      }
                      , {
                        "filename":"/home/u148853/motion_estimation.cl"
                        , "line":5
                      }
                    ]
                  ]
                }
                , {
                  "name":"motion_estimation.cl:48 > motion_estimation.cl:8"
                  , "type":"resource"
                  , "data":
                  [41, 34, 0, 0, 0]
                  , "debug":
                  [
                    [
                      {
                        "filename":"/home/u148853/motion_estimation.cl"
                        , "line":48
                      }
                      , {
                        "filename":"/home/u148853/motion_estimation.cl"
                        , "line":8
                      }
                    ]
                  ]
                }
              ]
            }
            , {
              "name":"Cluster logic"
              , "type":"resource"
              , "data":
              [30, 42, 0, 0, 2]
              , "details":
              [
                {
                  "type":"brief"
                  , "text":"Logic required to efficiently support sets of operations that do not stall"
                }
                , {
                  "type":"text"
                  , "text":"Logic required to efficiently support sets of operations that do not stall. This area cannot be affected directly."
                }
              ]
            }
            , {
              "name":"Computation"
              , "type":"resource"
              , "children":
              [
                {
                  "name":"No Source Line"
                  , "type":"resource"
                  , "data":
                  [1, 0, 0, 0, 0]
                  , "debug":
                  [
                    [
                      {
                        "filename":""
                        , "line":0
                      }
                    ]
                  ]
                  , "children":
                  [
                    {
                      "name":"1-bit And"
                      , "type":"resource"
                      , "count":1
                      , "data":
                      [1, 0, 0, 0, 0]
                    }
                  ]
                }
                , {
                  "name":"motion_estimation.cl:48 > motion_estimation.cl:8"
                  , "type":"resource"
                  , "data":
                  [36, 1, 0, 0, 0]
                  , "debug":
                  [
                    [
                      {
                        "filename":"/home/u148853/motion_estimation.cl"
                        , "line":48
                      }
                      , {
                        "filename":"/home/u148853/motion_estimation.cl"
                        , "line":8
                      }
                    ]
                  ]
                  , "children":
                  [
                    {
                      "name":"1-bit And"
                      , "type":"resource"
                      , "count":1
                      , "data":
                      [1, 0, 0, 0, 0]
                    }
                    , {
                      "name":"32-bit Integer Compare"
                      , "type":"resource"
                      , "count":1
                      , "data":
                      [35, 1, 0, 0, 0]
                    }
                  ]
                  , "replace_name":"true"
                }
                , {
                  "name":"motion_estimation.cl:48 > motion_estimation.cl:12"
                  , "type":"resource"
                  , "data":
                  [1504, 256, 0, 0, 0]
                  , "debug":
                  [
                    [
                      {
                        "filename":"/home/u148853/motion_estimation.cl"
                        , "line":48
                      }
                      , {
                        "filename":"/home/u148853/motion_estimation.cl"
                        , "line":12
                      }
                    ]
                  ]
                  , "children":
                  [
                    {
                      "name":"32-bit Integer Add"
                      , "type":"resource"
                      , "count":16
                      , "data":
                      [512, 0, 0, 0, 0]
                    }
                    , {
                      "name":"32-bit Select"
                      , "type":"resource"
                      , "count":16
                      , "data":
                      [416, 0, 0, 0, 0]
                    }
                    , {
                      "name":"Load"
                      , "type":"resource"
                      , "count":32
                      , "data":
                      [288, 256, 0, 0, 0]
                      , "details":
                      [
                        {
                          "type":"text"
                          , "text":"Load uses a Pipelined never-stall LSU"
                        }
                        , {
                          "type":"brief"
                          , "text":"Pipelined never-stall LSU"
                        }
                        , {
                          "type":"text"
                          , "text":"Stall-free read from memory declared on %L."
                          , "links":
                          [
                            {
                              "filename":"motion_estimation.cl"
                              , "line":"36"
                            }
                          ]
                        }
                        , {
                          "type":"text"
                          , "text":"See %L for more information"
                          , "links":
                          [
                            {
                              "guide":"Best Practices Guide : Load-Store Units"
                              , "link":"file:////glob/development-tools/versions/oneapi/2022.1.2/oneapi/compiler/2022.0.2/linux/lib/oclfpga/aoc_help_pages/yeo1491314105959.html"
                            }
                          ]
                        }
                      ]
                    }
                    , {
                      "name":"signed 1-bit x signed 9-bit to 10-bit Integer Subtract"
                      , "type":"resource"
                      , "count":16
                      , "data":
                      [144, 0, 0, 0, 0]
                    }
                    , {
                      "name":"unsigned 8-bit x unsigned 8-bit to 9-bit Integer Subtract"
                      , "type":"resource"
                      , "count":16
                      , "data":
                      [144, 0, 0, 0, 0]
                    }
                  ]
                  , "replace_name":"true"
                }
                , {
                  "name":"motion_estimation.cl:48 > motion_estimation.cl:16"
                  , "type":"resource"
                  , "data":
                  [35, 1, 0, 0, 0]
                  , "debug":
                  [
                    [
                      {
                        "filename":"/home/u148853/motion_estimation.cl"
                        , "line":48
                      }
                      , {
                        "filename":"/home/u148853/motion_estimation.cl"
                        , "line":16
                      }
                    ]
                  ]
                  , "children":
                  [
                    {
                      "name":"32-bit Integer Compare"
                      , "type":"resource"
                      , "count":1
                      , "data":
                      [35, 1, 0, 0, 0]
                    }
                  ]
                  , "replace_name":"true"
                }
              ]
            }
          ]
        }
        , {
          "name":"motion_estimation.B6"
          , "type":"basicblock"
          , "children":
          [
            {
              "name":"State"
              , "type":"resource"
              , "data":
              [96, 192, 0, 0, 0]
              , "details":
              [
                {
                  "type":"brief"
                  , "text":"Live values and control logic"
                }
                , {
                  "type":"text"
                  , "text":"Resources for live values and control logic. To reduce this area:"
                  , "details":
                  [
                    {
                      "type":"text"
                      , "text":"reduce size of local variables"
                    }
                    , {
                      "type":"text"
                      , "text":"reduce scope of local variables, localizing them as much as possible"
                    }
                    , {
                      "type":"text"
                      , "text":"reduce number of nested loops"
                    }
                  ]
                }
              ]
              , "children":
              [
                {
                  "name":"No Source Line"
                  , "type":"resource"
                  , "data":
                  [96, 192, 0, 0, 0]
                }
              ]
            }
            , {
              "name":"Feedback"
              , "type":"resource"
              , "data":
              [5, 8, 0, 0, 0]
              , "details":
              [
                {
                  "type":"brief"
                  , "text":"Loop-carried dependencies"
                }
                , {
                  "type":"text"
                  , "text":"Resources for loop-carried dependencies. To reduce this area:"
                  , "details":
                  [
                    {
                      "type":"text"
                      , "text":"reduce number and size of loop-carried variables"
                    }
                  ]
                }
              ]
              , "children":
              [
                {
                  "name":"motion_estimation.cl:49"
                  , "type":"resource"
                  , "data":
                  [5, 8, 0, 0, 0]
                  , "debug":
                  [
                    [
                      {
                        "filename":"/home/u148853/motion_estimation.cl"
                        , "line":49
                      }
                    ]
                  ]
                }
              ]
            }
            , {
              "name":"Cluster logic"
              , "type":"resource"
              , "data":
              [58, 104, 0, 0, 5]
              , "details":
              [
                {
                  "type":"brief"
                  , "text":"Logic required to efficiently support sets of operations that do not stall"
                }
                , {
                  "type":"text"
                  , "text":"Logic required to efficiently support sets of operations that do not stall. This area cannot be affected directly."
                }
              ]
            }
            , {
              "name":"Computation"
              , "type":"resource"
              , "children":
              [
                {
                  "name":"motion_estimation.cl:48"
                  , "type":"resource"
                  , "data":
                  [305, 1588, 17, 0, 0]
                  , "debug":
                  [
                    [
                      {
                        "filename":"/home/u148853/motion_estimation.cl"
                        , "line":48
                      }
                    ]
                  ]
                  , "children":
                  [
                    {
                      "name":"Store"
                      , "type":"resource"
                      , "count":1
                      , "data":
                      [305, 1588, 17, 0, 0]
                      , "details":
                      [
                        {
                          "type":"text"
                          , "text":"Store uses a Burst-coalesced LSU"
                        }
                        , {
                          "type":"brief"
                          , "text":"Burst-coalesced LSU"
                        }
                      ]
                    }
                  ]
                  , "replace_name":"true"
                }
                , {
                  "name":"motion_estimation.cl:48 > motion_estimation.cl:8"
                  , "type":"resource"
                  , "data":
                  [16, 0, 0, 0, 0]
                  , "debug":
                  [
                    [
                      {
                        "filename":"/home/u148853/motion_estimation.cl"
                        , "line":48
                      }
                      , {
                        "filename":"/home/u148853/motion_estimation.cl"
                        , "line":8
                      }
                    ]
                  ]
                  , "children":
                  [
                    {
                      "name":"32-bit Select"
                      , "type":"resource"
                      , "count":1
                      , "data":
                      [16, 0, 0, 0, 0]
                    }
                  ]
                  , "replace_name":"true"
                }
              ]
            }
          ]
        }
      ]
    }
  ]
}
