{
  "nodes":
  [
    {
      "type":"kernel"
      , "id":2
      , "name":"motion_estimation"
      , "children":
      [
        {
          "type":"inst"
          , "id":12
          , "name":"Store"
          , "debug":
          [
            [
              {
                "filename":"/home/u148853/motion_estimation.cl"
                , "line":29
              }
            ]
          ]
          , "details":
          [
            {
              "type":"table"
              , "Width":"8 bits"
              , "Type":"Pipelined never-stall"
              , "Stall-free":"Yes"
              , "Stores to":"act_block"
              , "Start Cycle":"797"
              , "Latency":"1"
              , "Reference":
              [
                {
                  "type":"text"
                  , "text":"See %L for more information"
                  , "links":
                  [
                    {
                      "guide":"Best Practices Guide : Load-Store Units"
                      , "link":"file:////glob/development-tools/versions/oneapi/2022.1.2/oneapi/compiler/2022.0.2/linux/lib/oclfpga/aoc_help_pages/yeo1491314105959.html"
                    }
                  ]
                }
              ]
            }
          ]
        }
        , {
          "type":"inst"
          , "id":13
          , "name":"Store"
          , "debug":
          [
            [
              {
                "filename":"/home/u148853/motion_estimation.cl"
                , "line":29
              }
            ]
          ]
          , "details":
          [
            {
              "type":"table"
              , "Width":"8 bits"
              , "Type":"Pipelined never-stall"
              , "Stall-free":"Yes"
              , "Stores to":"search_area"
              , "Start Cycle":"797"
              , "Latency":"1"
              , "Reference":
              [
                {
                  "type":"text"
                  , "text":"See %L for more information"
                  , "links":
                  [
                    {
                      "guide":"Best Practices Guide : Load-Store Units"
                      , "link":"file:////glob/development-tools/versions/oneapi/2022.1.2/oneapi/compiler/2022.0.2/linux/lib/oclfpga/aoc_help_pages/yeo1491314105959.html"
                    }
                  ]
                }
              ]
            }
          ]
        }
        , {
          "type":"inst"
          , "id":14
          , "name":"Load"
          , "debug":
          [
            [
              {
                "filename":"/home/u148853/motion_estimation.cl"
                , "line":12
              }
            ]
          ]
          , "details":
          [
            {
              "type":"table"
              , "Width":"8 bits"
              , "Type":"Pipelined never-stall"
              , "Stall-free":"Yes"
              , "Loads from":"search_area"
              , "Start Cycle":"4"
              , "Latency":"1"
              , "Reference":
              [
                {
                  "type":"text"
                  , "text":"See %L for more information"
                  , "links":
                  [
                    {
                      "guide":"Best Practices Guide : Load-Store Units"
                      , "link":"file:////glob/development-tools/versions/oneapi/2022.1.2/oneapi/compiler/2022.0.2/linux/lib/oclfpga/aoc_help_pages/yeo1491314105959.html"
                    }
                  ]
                }
              ]
            }
          ]
        }
        , {
          "type":"inst"
          , "id":15
          , "name":"Load"
          , "debug":
          [
            [
              {
                "filename":"/home/u148853/motion_estimation.cl"
                , "line":12
              }
            ]
          ]
          , "details":
          [
            {
              "type":"table"
              , "Width":"8 bits"
              , "Type":"Pipelined never-stall"
              , "Stall-free":"Yes"
              , "Loads from":"act_block"
              , "Start Cycle":"4"
              , "Latency":"1"
              , "Reference":
              [
                {
                  "type":"text"
                  , "text":"See %L for more information"
                  , "links":
                  [
                    {
                      "guide":"Best Practices Guide : Load-Store Units"
                      , "link":"file:////glob/development-tools/versions/oneapi/2022.1.2/oneapi/compiler/2022.0.2/linux/lib/oclfpga/aoc_help_pages/yeo1491314105959.html"
                    }
                  ]
                }
              ]
            }
          ]
        }
        , {
          "type":"inst"
          , "id":16
          , "name":"Load"
          , "debug":
          [
            [
              {
                "filename":"/home/u148853/motion_estimation.cl"
                , "line":12
              }
            ]
          ]
          , "details":
          [
            {
              "type":"table"
              , "Width":"8 bits"
              , "Type":"Pipelined never-stall"
              , "Stall-free":"Yes"
              , "Loads from":"search_area"
              , "Start Cycle":"4"
              , "Latency":"1"
              , "Reference":
              [
                {
                  "type":"text"
                  , "text":"See %L for more information"
                  , "links":
                  [
                    {
                      "guide":"Best Practices Guide : Load-Store Units"
                      , "link":"file:////glob/development-tools/versions/oneapi/2022.1.2/oneapi/compiler/2022.0.2/linux/lib/oclfpga/aoc_help_pages/yeo1491314105959.html"
                    }
                  ]
                }
              ]
            }
          ]
        }
        , {
          "type":"inst"
          , "id":17
          , "name":"Load"
          , "debug":
          [
            [
              {
                "filename":"/home/u148853/motion_estimation.cl"
                , "line":12
              }
            ]
          ]
          , "details":
          [
            {
              "type":"table"
              , "Width":"8 bits"
              , "Type":"Pipelined never-stall"
              , "Stall-free":"Yes"
              , "Loads from":"act_block"
              , "Start Cycle":"4"
              , "Latency":"1"
              , "Reference":
              [
                {
                  "type":"text"
                  , "text":"See %L for more information"
                  , "links":
                  [
                    {
                      "guide":"Best Practices Guide : Load-Store Units"
                      , "link":"file:////glob/development-tools/versions/oneapi/2022.1.2/oneapi/compiler/2022.0.2/linux/lib/oclfpga/aoc_help_pages/yeo1491314105959.html"
                    }
                  ]
                }
              ]
            }
          ]
        }
        , {
          "type":"inst"
          , "id":18
          , "name":"Load"
          , "debug":
          [
            [
              {
                "filename":"/home/u148853/motion_estimation.cl"
                , "line":12
              }
            ]
          ]
          , "details":
          [
            {
              "type":"table"
              , "Width":"8 bits"
              , "Type":"Pipelined never-stall"
              , "Stall-free":"Yes"
              , "Loads from":"search_area"
              , "Start Cycle":"4"
              , "Latency":"1"
              , "Reference":
              [
                {
                  "type":"text"
                  , "text":"See %L for more information"
                  , "links":
                  [
                    {
                      "guide":"Best Practices Guide : Load-Store Units"
                      , "link":"file:////glob/development-tools/versions/oneapi/2022.1.2/oneapi/compiler/2022.0.2/linux/lib/oclfpga/aoc_help_pages/yeo1491314105959.html"
                    }
                  ]
                }
              ]
            }
          ]
        }
        , {
          "type":"inst"
          , "id":19
          , "name":"Load"
          , "debug":
          [
            [
              {
                "filename":"/home/u148853/motion_estimation.cl"
                , "line":12
              }
            ]
          ]
          , "details":
          [
            {
              "type":"table"
              , "Width":"8 bits"
              , "Type":"Pipelined never-stall"
              , "Stall-free":"Yes"
              , "Loads from":"act_block"
              , "Start Cycle":"4"
              , "Latency":"1"
              , "Reference":
              [
                {
                  "type":"text"
                  , "text":"See %L for more information"
                  , "links":
                  [
                    {
                      "guide":"Best Practices Guide : Load-Store Units"
                      , "link":"file:////glob/development-tools/versions/oneapi/2022.1.2/oneapi/compiler/2022.0.2/linux/lib/oclfpga/aoc_help_pages/yeo1491314105959.html"
                    }
                  ]
                }
              ]
            }
          ]
        }
        , {
          "type":"inst"
          , "id":20
          , "name":"Load"
          , "debug":
          [
            [
              {
                "filename":"/home/u148853/motion_estimation.cl"
                , "line":12
              }
            ]
          ]
          , "details":
          [
            {
              "type":"table"
              , "Width":"8 bits"
              , "Type":"Pipelined never-stall"
              , "Stall-free":"Yes"
              , "Loads from":"search_area"
              , "Start Cycle":"4"
              , "Latency":"1"
              , "Reference":
              [
                {
                  "type":"text"
                  , "text":"See %L for more information"
                  , "links":
                  [
                    {
                      "guide":"Best Practices Guide : Load-Store Units"
                      , "link":"file:////glob/development-tools/versions/oneapi/2022.1.2/oneapi/compiler/2022.0.2/linux/lib/oclfpga/aoc_help_pages/yeo1491314105959.html"
                    }
                  ]
                }
              ]
            }
          ]
        }
        , {
          "type":"inst"
          , "id":21
          , "name":"Load"
          , "debug":
          [
            [
              {
                "filename":"/home/u148853/motion_estimation.cl"
                , "line":12
              }
            ]
          ]
          , "details":
          [
            {
              "type":"table"
              , "Width":"8 bits"
              , "Type":"Pipelined never-stall"
              , "Stall-free":"Yes"
              , "Loads from":"act_block"
              , "Start Cycle":"4"
              , "Latency":"1"
              , "Reference":
              [
                {
                  "type":"text"
                  , "text":"See %L for more information"
                  , "links":
                  [
                    {
                      "guide":"Best Practices Guide : Load-Store Units"
                      , "link":"file:////glob/development-tools/versions/oneapi/2022.1.2/oneapi/compiler/2022.0.2/linux/lib/oclfpga/aoc_help_pages/yeo1491314105959.html"
                    }
                  ]
                }
              ]
            }
          ]
        }
        , {
          "type":"inst"
          , "id":22
          , "name":"Load"
          , "debug":
          [
            [
              {
                "filename":"/home/u148853/motion_estimation.cl"
                , "line":12
              }
            ]
          ]
          , "details":
          [
            {
              "type":"table"
              , "Width":"8 bits"
              , "Type":"Pipelined never-stall"
              , "Stall-free":"Yes"
              , "Loads from":"search_area"
              , "Start Cycle":"4"
              , "Latency":"1"
              , "Reference":
              [
                {
                  "type":"text"
                  , "text":"See %L for more information"
                  , "links":
                  [
                    {
                      "guide":"Best Practices Guide : Load-Store Units"
                      , "link":"file:////glob/development-tools/versions/oneapi/2022.1.2/oneapi/compiler/2022.0.2/linux/lib/oclfpga/aoc_help_pages/yeo1491314105959.html"
                    }
                  ]
                }
              ]
            }
          ]
        }
        , {
          "type":"inst"
          , "id":23
          , "name":"Load"
          , "debug":
          [
            [
              {
                "filename":"/home/u148853/motion_estimation.cl"
                , "line":12
              }
            ]
          ]
          , "details":
          [
            {
              "type":"table"
              , "Width":"8 bits"
              , "Type":"Pipelined never-stall"
              , "Stall-free":"Yes"
              , "Loads from":"act_block"
              , "Start Cycle":"4"
              , "Latency":"1"
              , "Reference":
              [
                {
                  "type":"text"
                  , "text":"See %L for more information"
                  , "links":
                  [
                    {
                      "guide":"Best Practices Guide : Load-Store Units"
                      , "link":"file:////glob/development-tools/versions/oneapi/2022.1.2/oneapi/compiler/2022.0.2/linux/lib/oclfpga/aoc_help_pages/yeo1491314105959.html"
                    }
                  ]
                }
              ]
            }
          ]
        }
        , {
          "type":"inst"
          , "id":24
          , "name":"Load"
          , "debug":
          [
            [
              {
                "filename":"/home/u148853/motion_estimation.cl"
                , "line":12
              }
            ]
          ]
          , "details":
          [
            {
              "type":"table"
              , "Width":"8 bits"
              , "Type":"Pipelined never-stall"
              , "Stall-free":"Yes"
              , "Loads from":"search_area"
              , "Start Cycle":"4"
              , "Latency":"1"
              , "Reference":
              [
                {
                  "type":"text"
                  , "text":"See %L for more information"
                  , "links":
                  [
                    {
                      "guide":"Best Practices Guide : Load-Store Units"
                      , "link":"file:////glob/development-tools/versions/oneapi/2022.1.2/oneapi/compiler/2022.0.2/linux/lib/oclfpga/aoc_help_pages/yeo1491314105959.html"
                    }
                  ]
                }
              ]
            }
          ]
        }
        , {
          "type":"inst"
          , "id":25
          , "name":"Load"
          , "debug":
          [
            [
              {
                "filename":"/home/u148853/motion_estimation.cl"
                , "line":12
              }
            ]
          ]
          , "details":
          [
            {
              "type":"table"
              , "Width":"8 bits"
              , "Type":"Pipelined never-stall"
              , "Stall-free":"Yes"
              , "Loads from":"act_block"
              , "Start Cycle":"4"
              , "Latency":"1"
              , "Reference":
              [
                {
                  "type":"text"
                  , "text":"See %L for more information"
                  , "links":
                  [
                    {
                      "guide":"Best Practices Guide : Load-Store Units"
                      , "link":"file:////glob/development-tools/versions/oneapi/2022.1.2/oneapi/compiler/2022.0.2/linux/lib/oclfpga/aoc_help_pages/yeo1491314105959.html"
                    }
                  ]
                }
              ]
            }
          ]
        }
        , {
          "type":"inst"
          , "id":26
          , "name":"Load"
          , "debug":
          [
            [
              {
                "filename":"/home/u148853/motion_estimation.cl"
                , "line":12
              }
            ]
          ]
          , "details":
          [
            {
              "type":"table"
              , "Width":"8 bits"
              , "Type":"Pipelined never-stall"
              , "Stall-free":"Yes"
              , "Loads from":"search_area"
              , "Start Cycle":"4"
              , "Latency":"1"
              , "Reference":
              [
                {
                  "type":"text"
                  , "text":"See %L for more information"
                  , "links":
                  [
                    {
                      "guide":"Best Practices Guide : Load-Store Units"
                      , "link":"file:////glob/development-tools/versions/oneapi/2022.1.2/oneapi/compiler/2022.0.2/linux/lib/oclfpga/aoc_help_pages/yeo1491314105959.html"
                    }
                  ]
                }
              ]
            }
          ]
        }
        , {
          "type":"inst"
          , "id":27
          , "name":"Load"
          , "debug":
          [
            [
              {
                "filename":"/home/u148853/motion_estimation.cl"
                , "line":12
              }
            ]
          ]
          , "details":
          [
            {
              "type":"table"
              , "Width":"8 bits"
              , "Type":"Pipelined never-stall"
              , "Stall-free":"Yes"
              , "Loads from":"act_block"
              , "Start Cycle":"4"
              , "Latency":"1"
              , "Reference":
              [
                {
                  "type":"text"
                  , "text":"See %L for more information"
                  , "links":
                  [
                    {
                      "guide":"Best Practices Guide : Load-Store Units"
                      , "link":"file:////glob/development-tools/versions/oneapi/2022.1.2/oneapi/compiler/2022.0.2/linux/lib/oclfpga/aoc_help_pages/yeo1491314105959.html"
                    }
                  ]
                }
              ]
            }
          ]
        }
        , {
          "type":"inst"
          , "id":28
          , "name":"Load"
          , "debug":
          [
            [
              {
                "filename":"/home/u148853/motion_estimation.cl"
                , "line":12
              }
            ]
          ]
          , "details":
          [
            {
              "type":"table"
              , "Width":"8 bits"
              , "Type":"Pipelined never-stall"
              , "Stall-free":"Yes"
              , "Loads from":"search_area"
              , "Start Cycle":"4"
              , "Latency":"1"
              , "Reference":
              [
                {
                  "type":"text"
                  , "text":"See %L for more information"
                  , "links":
                  [
                    {
                      "guide":"Best Practices Guide : Load-Store Units"
                      , "link":"file:////glob/development-tools/versions/oneapi/2022.1.2/oneapi/compiler/2022.0.2/linux/lib/oclfpga/aoc_help_pages/yeo1491314105959.html"
                    }
                  ]
                }
              ]
            }
          ]
        }
        , {
          "type":"inst"
          , "id":29
          , "name":"Load"
          , "debug":
          [
            [
              {
                "filename":"/home/u148853/motion_estimation.cl"
                , "line":12
              }
            ]
          ]
          , "details":
          [
            {
              "type":"table"
              , "Width":"8 bits"
              , "Type":"Pipelined never-stall"
              , "Stall-free":"Yes"
              , "Loads from":"act_block"
              , "Start Cycle":"4"
              , "Latency":"1"
              , "Reference":
              [
                {
                  "type":"text"
                  , "text":"See %L for more information"
                  , "links":
                  [
                    {
                      "guide":"Best Practices Guide : Load-Store Units"
                      , "link":"file:////glob/development-tools/versions/oneapi/2022.1.2/oneapi/compiler/2022.0.2/linux/lib/oclfpga/aoc_help_pages/yeo1491314105959.html"
                    }
                  ]
                }
              ]
            }
          ]
        }
        , {
          "type":"inst"
          , "id":30
          , "name":"Load"
          , "debug":
          [
            [
              {
                "filename":"/home/u148853/motion_estimation.cl"
                , "line":12
              }
            ]
          ]
          , "details":
          [
            {
              "type":"table"
              , "Width":"8 bits"
              , "Type":"Pipelined never-stall"
              , "Stall-free":"Yes"
              , "Loads from":"search_area"
              , "Start Cycle":"4"
              , "Latency":"1"
              , "Reference":
              [
                {
                  "type":"text"
                  , "text":"See %L for more information"
                  , "links":
                  [
                    {
                      "guide":"Best Practices Guide : Load-Store Units"
                      , "link":"file:////glob/development-tools/versions/oneapi/2022.1.2/oneapi/compiler/2022.0.2/linux/lib/oclfpga/aoc_help_pages/yeo1491314105959.html"
                    }
                  ]
                }
              ]
            }
          ]
        }
        , {
          "type":"inst"
          , "id":31
          , "name":"Load"
          , "debug":
          [
            [
              {
                "filename":"/home/u148853/motion_estimation.cl"
                , "line":12
              }
            ]
          ]
          , "details":
          [
            {
              "type":"table"
              , "Width":"8 bits"
              , "Type":"Pipelined never-stall"
              , "Stall-free":"Yes"
              , "Loads from":"act_block"
              , "Start Cycle":"4"
              , "Latency":"1"
              , "Reference":
              [
                {
                  "type":"text"
                  , "text":"See %L for more information"
                  , "links":
                  [
                    {
                      "guide":"Best Practices Guide : Load-Store Units"
                      , "link":"file:////glob/development-tools/versions/oneapi/2022.1.2/oneapi/compiler/2022.0.2/linux/lib/oclfpga/aoc_help_pages/yeo1491314105959.html"
                    }
                  ]
                }
              ]
            }
          ]
        }
        , {
          "type":"inst"
          , "id":32
          , "name":"Load"
          , "debug":
          [
            [
              {
                "filename":"/home/u148853/motion_estimation.cl"
                , "line":12
              }
            ]
          ]
          , "details":
          [
            {
              "type":"table"
              , "Width":"8 bits"
              , "Type":"Pipelined never-stall"
              , "Stall-free":"Yes"
              , "Loads from":"search_area"
              , "Start Cycle":"4"
              , "Latency":"1"
              , "Reference":
              [
                {
                  "type":"text"
                  , "text":"See %L for more information"
                  , "links":
                  [
                    {
                      "guide":"Best Practices Guide : Load-Store Units"
                      , "link":"file:////glob/development-tools/versions/oneapi/2022.1.2/oneapi/compiler/2022.0.2/linux/lib/oclfpga/aoc_help_pages/yeo1491314105959.html"
                    }
                  ]
                }
              ]
            }
          ]
        }
        , {
          "type":"inst"
          , "id":33
          , "name":"Load"
          , "debug":
          [
            [
              {
                "filename":"/home/u148853/motion_estimation.cl"
                , "line":12
              }
            ]
          ]
          , "details":
          [
            {
              "type":"table"
              , "Width":"8 bits"
              , "Type":"Pipelined never-stall"
              , "Stall-free":"Yes"
              , "Loads from":"act_block"
              , "Start Cycle":"4"
              , "Latency":"1"
              , "Reference":
              [
                {
                  "type":"text"
                  , "text":"See %L for more information"
                  , "links":
                  [
                    {
                      "guide":"Best Practices Guide : Load-Store Units"
                      , "link":"file:////glob/development-tools/versions/oneapi/2022.1.2/oneapi/compiler/2022.0.2/linux/lib/oclfpga/aoc_help_pages/yeo1491314105959.html"
                    }
                  ]
                }
              ]
            }
          ]
        }
        , {
          "type":"inst"
          , "id":34
          , "name":"Load"
          , "debug":
          [
            [
              {
                "filename":"/home/u148853/motion_estimation.cl"
                , "line":12
              }
            ]
          ]
          , "details":
          [
            {
              "type":"table"
              , "Width":"8 bits"
              , "Type":"Pipelined never-stall"
              , "Stall-free":"Yes"
              , "Loads from":"search_area"
              , "Start Cycle":"4"
              , "Latency":"1"
              , "Reference":
              [
                {
                  "type":"text"
                  , "text":"See %L for more information"
                  , "links":
                  [
                    {
                      "guide":"Best Practices Guide : Load-Store Units"
                      , "link":"file:////glob/development-tools/versions/oneapi/2022.1.2/oneapi/compiler/2022.0.2/linux/lib/oclfpga/aoc_help_pages/yeo1491314105959.html"
                    }
                  ]
                }
              ]
            }
          ]
        }
        , {
          "type":"inst"
          , "id":35
          , "name":"Load"
          , "debug":
          [
            [
              {
                "filename":"/home/u148853/motion_estimation.cl"
                , "line":12
              }
            ]
          ]
          , "details":
          [
            {
              "type":"table"
              , "Width":"8 bits"
              , "Type":"Pipelined never-stall"
              , "Stall-free":"Yes"
              , "Loads from":"act_block"
              , "Start Cycle":"4"
              , "Latency":"1"
              , "Reference":
              [
                {
                  "type":"text"
                  , "text":"See %L for more information"
                  , "links":
                  [
                    {
                      "guide":"Best Practices Guide : Load-Store Units"
                      , "link":"file:////glob/development-tools/versions/oneapi/2022.1.2/oneapi/compiler/2022.0.2/linux/lib/oclfpga/aoc_help_pages/yeo1491314105959.html"
                    }
                  ]
                }
              ]
            }
          ]
        }
        , {
          "type":"inst"
          , "id":36
          , "name":"Load"
          , "debug":
          [
            [
              {
                "filename":"/home/u148853/motion_estimation.cl"
                , "line":12
              }
            ]
          ]
          , "details":
          [
            {
              "type":"table"
              , "Width":"8 bits"
              , "Type":"Pipelined never-stall"
              , "Stall-free":"Yes"
              , "Loads from":"search_area"
              , "Start Cycle":"4"
              , "Latency":"1"
              , "Reference":
              [
                {
                  "type":"text"
                  , "text":"See %L for more information"
                  , "links":
                  [
                    {
                      "guide":"Best Practices Guide : Load-Store Units"
                      , "link":"file:////glob/development-tools/versions/oneapi/2022.1.2/oneapi/compiler/2022.0.2/linux/lib/oclfpga/aoc_help_pages/yeo1491314105959.html"
                    }
                  ]
                }
              ]
            }
          ]
        }
        , {
          "type":"inst"
          , "id":37
          , "name":"Load"
          , "debug":
          [
            [
              {
                "filename":"/home/u148853/motion_estimation.cl"
                , "line":12
              }
            ]
          ]
          , "details":
          [
            {
              "type":"table"
              , "Width":"8 bits"
              , "Type":"Pipelined never-stall"
              , "Stall-free":"Yes"
              , "Loads from":"act_block"
              , "Start Cycle":"4"
              , "Latency":"1"
              , "Reference":
              [
                {
                  "type":"text"
                  , "text":"See %L for more information"
                  , "links":
                  [
                    {
                      "guide":"Best Practices Guide : Load-Store Units"
                      , "link":"file:////glob/development-tools/versions/oneapi/2022.1.2/oneapi/compiler/2022.0.2/linux/lib/oclfpga/aoc_help_pages/yeo1491314105959.html"
                    }
                  ]
                }
              ]
            }
          ]
        }
        , {
          "type":"inst"
          , "id":38
          , "name":"Load"
          , "debug":
          [
            [
              {
                "filename":"/home/u148853/motion_estimation.cl"
                , "line":12
              }
            ]
          ]
          , "details":
          [
            {
              "type":"table"
              , "Width":"8 bits"
              , "Type":"Pipelined never-stall"
              , "Stall-free":"Yes"
              , "Loads from":"search_area"
              , "Start Cycle":"4"
              , "Latency":"1"
              , "Reference":
              [
                {
                  "type":"text"
                  , "text":"See %L for more information"
                  , "links":
                  [
                    {
                      "guide":"Best Practices Guide : Load-Store Units"
                      , "link":"file:////glob/development-tools/versions/oneapi/2022.1.2/oneapi/compiler/2022.0.2/linux/lib/oclfpga/aoc_help_pages/yeo1491314105959.html"
                    }
                  ]
                }
              ]
            }
          ]
        }
        , {
          "type":"inst"
          , "id":39
          , "name":"Load"
          , "debug":
          [
            [
              {
                "filename":"/home/u148853/motion_estimation.cl"
                , "line":12
              }
            ]
          ]
          , "details":
          [
            {
              "type":"table"
              , "Width":"8 bits"
              , "Type":"Pipelined never-stall"
              , "Stall-free":"Yes"
              , "Loads from":"act_block"
              , "Start Cycle":"4"
              , "Latency":"1"
              , "Reference":
              [
                {
                  "type":"text"
                  , "text":"See %L for more information"
                  , "links":
                  [
                    {
                      "guide":"Best Practices Guide : Load-Store Units"
                      , "link":"file:////glob/development-tools/versions/oneapi/2022.1.2/oneapi/compiler/2022.0.2/linux/lib/oclfpga/aoc_help_pages/yeo1491314105959.html"
                    }
                  ]
                }
              ]
            }
          ]
        }
        , {
          "type":"inst"
          , "id":40
          , "name":"Load"
          , "debug":
          [
            [
              {
                "filename":"/home/u148853/motion_estimation.cl"
                , "line":12
              }
            ]
          ]
          , "details":
          [
            {
              "type":"table"
              , "Width":"8 bits"
              , "Type":"Pipelined never-stall"
              , "Stall-free":"Yes"
              , "Loads from":"search_area"
              , "Start Cycle":"4"
              , "Latency":"1"
              , "Reference":
              [
                {
                  "type":"text"
                  , "text":"See %L for more information"
                  , "links":
                  [
                    {
                      "guide":"Best Practices Guide : Load-Store Units"
                      , "link":"file:////glob/development-tools/versions/oneapi/2022.1.2/oneapi/compiler/2022.0.2/linux/lib/oclfpga/aoc_help_pages/yeo1491314105959.html"
                    }
                  ]
                }
              ]
            }
          ]
        }
        , {
          "type":"inst"
          , "id":41
          , "name":"Load"
          , "debug":
          [
            [
              {
                "filename":"/home/u148853/motion_estimation.cl"
                , "line":12
              }
            ]
          ]
          , "details":
          [
            {
              "type":"table"
              , "Width":"8 bits"
              , "Type":"Pipelined never-stall"
              , "Stall-free":"Yes"
              , "Loads from":"act_block"
              , "Start Cycle":"4"
              , "Latency":"1"
              , "Reference":
              [
                {
                  "type":"text"
                  , "text":"See %L for more information"
                  , "links":
                  [
                    {
                      "guide":"Best Practices Guide : Load-Store Units"
                      , "link":"file:////glob/development-tools/versions/oneapi/2022.1.2/oneapi/compiler/2022.0.2/linux/lib/oclfpga/aoc_help_pages/yeo1491314105959.html"
                    }
                  ]
                }
              ]
            }
          ]
        }
        , {
          "type":"inst"
          , "id":42
          , "name":"Load"
          , "debug":
          [
            [
              {
                "filename":"/home/u148853/motion_estimation.cl"
                , "line":12
              }
            ]
          ]
          , "details":
          [
            {
              "type":"table"
              , "Width":"8 bits"
              , "Type":"Pipelined never-stall"
              , "Stall-free":"Yes"
              , "Loads from":"search_area"
              , "Start Cycle":"4"
              , "Latency":"1"
              , "Reference":
              [
                {
                  "type":"text"
                  , "text":"See %L for more information"
                  , "links":
                  [
                    {
                      "guide":"Best Practices Guide : Load-Store Units"
                      , "link":"file:////glob/development-tools/versions/oneapi/2022.1.2/oneapi/compiler/2022.0.2/linux/lib/oclfpga/aoc_help_pages/yeo1491314105959.html"
                    }
                  ]
                }
              ]
            }
          ]
        }
        , {
          "type":"inst"
          , "id":43
          , "name":"Load"
          , "debug":
          [
            [
              {
                "filename":"/home/u148853/motion_estimation.cl"
                , "line":12
              }
            ]
          ]
          , "details":
          [
            {
              "type":"table"
              , "Width":"8 bits"
              , "Type":"Pipelined never-stall"
              , "Stall-free":"Yes"
              , "Loads from":"act_block"
              , "Start Cycle":"4"
              , "Latency":"1"
              , "Reference":
              [
                {
                  "type":"text"
                  , "text":"See %L for more information"
                  , "links":
                  [
                    {
                      "guide":"Best Practices Guide : Load-Store Units"
                      , "link":"file:////glob/development-tools/versions/oneapi/2022.1.2/oneapi/compiler/2022.0.2/linux/lib/oclfpga/aoc_help_pages/yeo1491314105959.html"
                    }
                  ]
                }
              ]
            }
          ]
        }
        , {
          "type":"inst"
          , "id":44
          , "name":"Load"
          , "debug":
          [
            [
              {
                "filename":"/home/u148853/motion_estimation.cl"
                , "line":12
              }
            ]
          ]
          , "details":
          [
            {
              "type":"table"
              , "Width":"8 bits"
              , "Type":"Pipelined never-stall"
              , "Stall-free":"Yes"
              , "Loads from":"search_area"
              , "Start Cycle":"4"
              , "Latency":"1"
              , "Reference":
              [
                {
                  "type":"text"
                  , "text":"See %L for more information"
                  , "links":
                  [
                    {
                      "guide":"Best Practices Guide : Load-Store Units"
                      , "link":"file:////glob/development-tools/versions/oneapi/2022.1.2/oneapi/compiler/2022.0.2/linux/lib/oclfpga/aoc_help_pages/yeo1491314105959.html"
                    }
                  ]
                }
              ]
            }
          ]
        }
        , {
          "type":"inst"
          , "id":45
          , "name":"Load"
          , "debug":
          [
            [
              {
                "filename":"/home/u148853/motion_estimation.cl"
                , "line":12
              }
            ]
          ]
          , "details":
          [
            {
              "type":"table"
              , "Width":"8 bits"
              , "Type":"Pipelined never-stall"
              , "Stall-free":"Yes"
              , "Loads from":"act_block"
              , "Start Cycle":"4"
              , "Latency":"1"
              , "Reference":
              [
                {
                  "type":"text"
                  , "text":"See %L for more information"
                  , "links":
                  [
                    {
                      "guide":"Best Practices Guide : Load-Store Units"
                      , "link":"file:////glob/development-tools/versions/oneapi/2022.1.2/oneapi/compiler/2022.0.2/linux/lib/oclfpga/aoc_help_pages/yeo1491314105959.html"
                    }
                  ]
                }
              ]
            }
          ]
        }
        , {
          "type":"memtype"
          , "id":53
          , "name":"On-chip Memory"
          , "children":
          [
            {
              "type":"memsys"
              , "id":54
              , "name":"act_block"
              , "debug":
              [
                [
                  {
                    "filename":"motion_estimation.cl"
                    , "line":36
                  }
                ]
              ]
              , "children":
              [
                {
                  "type":"bank"
                  , "id":55
                  , "name":"Bank 0"
                  , "debug":
                  [
                    [
                      {
                        "filename":"motion_estimation.cl"
                        , "line":36
                      }
                    ]
                  ]
                  , "children":
                  [
                    {
                      "type":"port"
                      , "id":56
                      , "name":"RW"
                    }
                    , {
                      "type":"port"
                      , "id":58
                      , "name":"R"
                    }
                    , {
                      "type":"port"
                      , "id":59
                      , "name":"RW"
                    }
                    , {
                      "type":"port"
                      , "id":61
                      , "name":"R"
                    }
                    , {
                      "type":"port"
                      , "id":62
                      , "name":"RW"
                    }
                    , {
                      "type":"port"
                      , "id":64
                      , "name":"R"
                    }
                    , {
                      "type":"port"
                      , "id":65
                      , "name":"RW"
                    }
                    , {
                      "type":"port"
                      , "id":67
                      , "name":"R"
                    }
                    , {
                      "type":"port"
                      , "id":68
                      , "name":"RW"
                    }
                    , {
                      "type":"port"
                      , "id":70
                      , "name":"R"
                    }
                    , {
                      "type":"port"
                      , "id":71
                      , "name":"RW"
                    }
                    , {
                      "type":"port"
                      , "id":73
                      , "name":"R"
                    }
                    , {
                      "type":"port"
                      , "id":74
                      , "name":"RW"
                    }
                    , {
                      "type":"port"
                      , "id":76
                      , "name":"R"
                    }
                    , {
                      "type":"port"
                      , "id":77
                      , "name":"RW"
                    }
                    , {
                      "type":"port"
                      , "id":79
                      , "name":"R"
                    }
                  ]
                  , "details":
                  [
                    {
                      "type":"table"
                      , "details":
                      [
                        {
                          "type":"brief"
                          , "text":"16 total ports/bank\n8 read ports/bank\n0 write ports/bank"
                        }
                      ]
                      , "Total number of ports per bank":"16"
                      , "Number of read ports per bank":"8"
                      , "Number of write ports per bank":"0"
                      , "Number of shared ports per bank":"8"
                      , "Total replication":"8"
                    }
                  ]
                }
              ]
              , "details":
              [
                {
                  "type":"table"
                  , "Requested size":"16384 bytes"
                  , "Implemented size":"131072 bytes"
                  , "Number of banks":"1"
                  , "Bank width":"8 bits"
                  , "Bank depth":"16384 words"
                  , "Number of replicates":"8"
                  , "Number of private copies":"1"
                  , "Additional Information":"For each bank, 8 replicates were created to efficiently support multiple accesses"
                  , "Reference":
                  [
                    {
                      "type":"text"
                      , "text":"See %L for more information"
                      , "links":
                      [
                        {
                          "guide":"Best Practices Guide : Local Memory"
                          , "link":"file:////glob/development-tools/versions/oneapi/2022.1.2/oneapi/compiler/2022.0.2/linux/lib/oclfpga/aoc_help_pages/chn1469549457114.html"
                        }
                      ]
                    }
                  ]
                }
              ]
            }
            , {
              "type":"memsys"
              , "id":80
              , "name":"search_area"
              , "debug":
              [
                [
                  {
                    "filename":"motion_estimation.cl"
                    , "line":36
                  }
                ]
              ]
              , "children":
              [
                {
                  "type":"bank"
                  , "id":81
                  , "name":"Bank 0"
                  , "debug":
                  [
                    [
                      {
                        "filename":"motion_estimation.cl"
                        , "line":36
                      }
                    ]
                  ]
                  , "children":
                  [
                    {
                      "type":"port"
                      , "id":82
                      , "name":"RW"
                    }
                    , {
                      "type":"port"
                      , "id":84
                      , "name":"R"
                    }
                    , {
                      "type":"port"
                      , "id":85
                      , "name":"RW"
                    }
                    , {
                      "type":"port"
                      , "id":87
                      , "name":"R"
                    }
                    , {
                      "type":"port"
                      , "id":88
                      , "name":"RW"
                    }
                    , {
                      "type":"port"
                      , "id":90
                      , "name":"R"
                    }
                    , {
                      "type":"port"
                      , "id":91
                      , "name":"RW"
                    }
                    , {
                      "type":"port"
                      , "id":93
                      , "name":"R"
                    }
                    , {
                      "type":"port"
                      , "id":94
                      , "name":"RW"
                    }
                    , {
                      "type":"port"
                      , "id":96
                      , "name":"R"
                    }
                    , {
                      "type":"port"
                      , "id":97
                      , "name":"RW"
                    }
                    , {
                      "type":"port"
                      , "id":99
                      , "name":"R"
                    }
                    , {
                      "type":"port"
                      , "id":100
                      , "name":"RW"
                    }
                    , {
                      "type":"port"
                      , "id":102
                      , "name":"R"
                    }
                    , {
                      "type":"port"
                      , "id":103
                      , "name":"RW"
                    }
                    , {
                      "type":"port"
                      , "id":105
                      , "name":"R"
                    }
                  ]
                  , "details":
                  [
                    {
                      "type":"table"
                      , "details":
                      [
                        {
                          "type":"brief"
                          , "text":"16 total ports/bank\n8 read ports/bank\n0 write ports/bank"
                        }
                      ]
                      , "Total number of ports per bank":"16"
                      , "Number of read ports per bank":"8"
                      , "Number of write ports per bank":"0"
                      , "Number of shared ports per bank":"8"
                      , "Total replication":"8"
                    }
                  ]
                }
              ]
              , "details":
              [
                {
                  "type":"table"
                  , "Requested size":"16384 bytes"
                  , "Implemented size":"131072 bytes"
                  , "Number of banks":"1"
                  , "Bank width":"8 bits"
                  , "Bank depth":"16384 words"
                  , "Number of replicates":"8"
                  , "Number of private copies":"1"
                  , "Additional Information":"For each bank, 8 replicates were created to efficiently support multiple accesses"
                  , "Reference":
                  [
                    {
                      "type":"text"
                      , "text":"See %L for more information"
                      , "links":
                      [
                        {
                          "guide":"Best Practices Guide : Local Memory"
                          , "link":"file:////glob/development-tools/versions/oneapi/2022.1.2/oneapi/compiler/2022.0.2/linux/lib/oclfpga/aoc_help_pages/chn1469549457114.html"
                        }
                      ]
                    }
                  ]
                }
              ]
            }
          ]
        }
        , {
          "type":"arb"
          , "id":57
          , "name":"SHARE"
          , "details":
          [
            {
              "type":"table"
              , "Additional Information":"Mutually exclusive accesses, no stalls"
            }
          ]
        }
        , {
          "type":"arb"
          , "id":60
          , "name":"SHARE"
          , "details":
          [
            {
              "type":"table"
              , "Additional Information":"Mutually exclusive accesses, no stalls"
            }
          ]
        }
        , {
          "type":"arb"
          , "id":63
          , "name":"SHARE"
          , "details":
          [
            {
              "type":"table"
              , "Additional Information":"Mutually exclusive accesses, no stalls"
            }
          ]
        }
        , {
          "type":"arb"
          , "id":66
          , "name":"SHARE"
          , "details":
          [
            {
              "type":"table"
              , "Additional Information":"Mutually exclusive accesses, no stalls"
            }
          ]
        }
        , {
          "type":"arb"
          , "id":69
          , "name":"SHARE"
          , "details":
          [
            {
              "type":"table"
              , "Additional Information":"Mutually exclusive accesses, no stalls"
            }
          ]
        }
        , {
          "type":"arb"
          , "id":72
          , "name":"SHARE"
          , "details":
          [
            {
              "type":"table"
              , "Additional Information":"Mutually exclusive accesses, no stalls"
            }
          ]
        }
        , {
          "type":"arb"
          , "id":75
          , "name":"SHARE"
          , "details":
          [
            {
              "type":"table"
              , "Additional Information":"Mutually exclusive accesses, no stalls"
            }
          ]
        }
        , {
          "type":"arb"
          , "id":78
          , "name":"SHARE"
          , "details":
          [
            {
              "type":"table"
              , "Additional Information":"Mutually exclusive accesses, no stalls"
            }
          ]
        }
        , {
          "type":"arb"
          , "id":83
          , "name":"SHARE"
          , "details":
          [
            {
              "type":"table"
              , "Additional Information":"Mutually exclusive accesses, no stalls"
            }
          ]
        }
        , {
          "type":"arb"
          , "id":86
          , "name":"SHARE"
          , "details":
          [
            {
              "type":"table"
              , "Additional Information":"Mutually exclusive accesses, no stalls"
            }
          ]
        }
        , {
          "type":"arb"
          , "id":89
          , "name":"SHARE"
          , "details":
          [
            {
              "type":"table"
              , "Additional Information":"Mutually exclusive accesses, no stalls"
            }
          ]
        }
        , {
          "type":"arb"
          , "id":92
          , "name":"SHARE"
          , "details":
          [
            {
              "type":"table"
              , "Additional Information":"Mutually exclusive accesses, no stalls"
            }
          ]
        }
        , {
          "type":"arb"
          , "id":95
          , "name":"SHARE"
          , "details":
          [
            {
              "type":"table"
              , "Additional Information":"Mutually exclusive accesses, no stalls"
            }
          ]
        }
        , {
          "type":"arb"
          , "id":98
          , "name":"SHARE"
          , "details":
          [
            {
              "type":"table"
              , "Additional Information":"Mutually exclusive accesses, no stalls"
            }
          ]
        }
        , {
          "type":"arb"
          , "id":101
          , "name":"SHARE"
          , "details":
          [
            {
              "type":"table"
              , "Additional Information":"Mutually exclusive accesses, no stalls"
            }
          ]
        }
        , {
          "type":"arb"
          , "id":104
          , "name":"SHARE"
          , "details":
          [
            {
              "type":"table"
              , "Additional Information":"Mutually exclusive accesses, no stalls"
            }
          ]
        }
      ]
    }
  ]
  , "links":
  [
    {
      "from":57
      , "to":15
    }
    , {
      "from":12
      , "to":57
    }
    , {
      "from":57
      , "to":56
    }
    , {
      "from":56
      , "to":57
    }
    , {
      "from":58
      , "to":17
    }
    , {
      "from":12
      , "to":60
    }
    , {
      "from":60
      , "to":19
    }
    , {
      "from":60
      , "to":59
    }
    , {
      "from":59
      , "to":60
    }
    , {
      "from":61
      , "to":21
    }
    , {
      "from":63
      , "to":23
    }
    , {
      "from":12
      , "to":63
    }
    , {
      "from":63
      , "to":62
    }
    , {
      "from":62
      , "to":63
    }
    , {
      "from":64
      , "to":25
    }
    , {
      "from":66
      , "to":27
    }
    , {
      "from":12
      , "to":66
    }
    , {
      "from":66
      , "to":65
    }
    , {
      "from":65
      , "to":66
    }
    , {
      "from":67
      , "to":29
    }
    , {
      "from":12
      , "to":69
    }
    , {
      "from":69
      , "to":31
    }
    , {
      "from":69
      , "to":68
    }
    , {
      "from":68
      , "to":69
    }
    , {
      "from":70
      , "to":33
    }
    , {
      "from":12
      , "to":72
    }
    , {
      "from":72
      , "to":35
    }
    , {
      "from":72
      , "to":71
    }
    , {
      "from":71
      , "to":72
    }
    , {
      "from":73
      , "to":37
    }
    , {
      "from":12
      , "to":75
    }
    , {
      "from":75
      , "to":39
    }
    , {
      "from":75
      , "to":74
    }
    , {
      "from":74
      , "to":75
    }
    , {
      "from":76
      , "to":41
    }
    , {
      "from":12
      , "to":78
    }
    , {
      "from":78
      , "to":43
    }
    , {
      "from":78
      , "to":77
    }
    , {
      "from":77
      , "to":78
    }
    , {
      "from":79
      , "to":45
    }
    , {
      "from":83
      , "to":14
    }
    , {
      "from":13
      , "to":83
    }
    , {
      "from":83
      , "to":82
    }
    , {
      "from":82
      , "to":83
    }
    , {
      "from":84
      , "to":16
    }
    , {
      "from":86
      , "to":18
    }
    , {
      "from":13
      , "to":86
    }
    , {
      "from":86
      , "to":85
    }
    , {
      "from":85
      , "to":86
    }
    , {
      "from":87
      , "to":20
    }
    , {
      "from":13
      , "to":89
    }
    , {
      "from":89
      , "to":22
    }
    , {
      "from":89
      , "to":88
    }
    , {
      "from":88
      , "to":89
    }
    , {
      "from":90
      , "to":24
    }
    , {
      "from":92
      , "to":26
    }
    , {
      "from":13
      , "to":92
    }
    , {
      "from":92
      , "to":91
    }
    , {
      "from":91
      , "to":92
    }
    , {
      "from":93
      , "to":28
    }
    , {
      "from":13
      , "to":95
    }
    , {
      "from":95
      , "to":30
    }
    , {
      "from":95
      , "to":94
    }
    , {
      "from":94
      , "to":95
    }
    , {
      "from":96
      , "to":32
    }
    , {
      "from":13
      , "to":98
    }
    , {
      "from":98
      , "to":34
    }
    , {
      "from":98
      , "to":97
    }
    , {
      "from":97
      , "to":98
    }
    , {
      "from":99
      , "to":36
    }
    , {
      "from":13
      , "to":101
    }
    , {
      "from":101
      , "to":38
    }
    , {
      "from":101
      , "to":100
    }
    , {
      "from":100
      , "to":101
    }
    , {
      "from":102
      , "to":40
    }
    , {
      "from":13
      , "to":104
    }
    , {
      "from":104
      , "to":42
    }
    , {
      "from":104
      , "to":103
    }
    , {
      "from":103
      , "to":104
    }
    , {
      "from":105
      , "to":44
    }
  ]
}
