{
  "columns":
  ["", "Pipelined", "II", "Speculated iterations", "Details"]
  , "children":
  [
    {
      "name":"Kernel: process_frame"
      , "data":
      ["", "", ""]
      , "debug":
      [
        [
          {
            "filename":"/home/u148853/process_frame.cl"
            , "line":76
          }
        ]
      ]
      , "details":
      [
        {
          "type":"brief"
          , "text":"Single work-item execution"
        }
        , {
          "type":"text"
          , "text":"Single work-item execution"
        }
        , {
          "type":"text"
          , "text":"Fmax bottlenck block: None"
        }
        , {
          "type":"text"
          , "text":"See %L for more information"
          , "links":
          [
            {
              "guide":"Best Practices Guide : Kernels"
              , "link":"file:////glob/development-tools/versions/oneapi/2022.2/oneapi/compiler/2022.1.0/linux/lib/oclfpga/aoc_help_pages/ipp1476408832230.html"
            }
          ]
        }
      ]
      , "children":
      [
        {
          "name":"process_frame.B1"
          , "data":
          ["Yes", ">=1", "4"]
          , "debug":
          [
            [
              {
                "filename":"/home/u148853/process_frame.cl"
                , "line":84
              }
            ]
          ]
          , "details":
          [
            {
              "type":"text"
              , "text":"Stallable instruction: n/a"
            }
            , {
              "type":"text"
              , "text":"Maximum concurrent iterations: Capacity of loop"
              , "details":
              [
                {
                  "type":"text"
                  , "text":"Use the %L viewer to estimate capacity"
                  , "links":
                  [
                    {
                      "view":"Fmax II Report"
                    }
                  ]
                }
              ]
            }
            , {
              "type":"text"
              , "text":"Average Trip count: 68 (exact)"
            }
            , {
              "type":"text"
              , "text":"See %L for more information"
              , "links":
              [
                {
                  "guide":"Best Practices Guide : Nested Loops"
                  , "link":"file:////glob/development-tools/versions/oneapi/2022.2/oneapi/compiler/2022.1.0/linux/lib/oclfpga/aoc_help_pages/rfr1469543500580.html"
                }
              ]
            }
          ]
          , "children":
          [
            {
              "name":"process_frame.B4"
              , "data":
              ["Yes", ">=1", "0"]
              , "debug":
              [
                [
                  {
                    "filename":"/home/u148853/process_frame.cl"
                    , "line":86
                  }
                ]
              ]
              , "details":
              [
                {
                  "type":"brief"
                  , "text":"Serial exe: Memory dependency"
                }
                , {
                  "type":"text"
                  , "text":"Iteration executed serially across process_frame.B5, process_frame.B7. Only a single loop iteration will execute inside this region due to memory dependency:"
                  , "details":
                  [
                    {
                      "type":"text"
                      , "text":"From: Store Operation (%L > %L)"
                      , "links":
                      [
                        {
                          "filename":"/home/u148853/process_frame.cl"
                          , "line":"92"
                        }
                        , {
                          "filename":"/home/u148853/process_frame.cl"
                          , "line":"30"
                        }
                      ]
                    }
                    , {
                      "type":"text"
                      , "text":"To: Load Operation (%L > %L > %L)"
                      , "links":
                      [
                        {
                          "filename":"/home/u148853/process_frame.cl"
                          , "line":"100"
                        }
                        , {
                          "filename":"/home/u148853/process_frame.cl"
                          , "line":"58"
                        }
                        , {
                          "filename":"/home/u148853/process_frame.cl"
                          , "line":"16"
                        }
                      ]
                    }
                  ]
                }
                , {
                  "type":"text"
                  , "text":"Iteration executed serially across process_frame.B7, process_frame.B9. Only a single loop iteration will execute inside this region due to memory dependency:"
                  , "details":
                  [
                    {
                      "type":"text"
                      , "text":"From: Store Operation (%L > %L)"
                      , "links":
                      [
                        {
                          "filename":"/home/u148853/process_frame.cl"
                          , "line":"95"
                        }
                        , {
                          "filename":"/home/u148853/process_frame.cl"
                          , "line":"42"
                        }
                      ]
                    }
                    , {
                      "type":"text"
                      , "text":"To: Load Operation (%L > %L > %L)"
                      , "links":
                      [
                        {
                          "filename":"/home/u148853/process_frame.cl"
                          , "line":"100"
                        }
                        , {
                          "filename":"/home/u148853/process_frame.cl"
                          , "line":"58"
                        }
                        , {
                          "filename":"/home/u148853/process_frame.cl"
                          , "line":"16"
                        }
                      ]
                    }
                  ]
                }
                , {
                  "type":"text"
                  , "text":"Stallable instruction: n/a"
                }
                , {
                  "type":"text"
                  , "text":"Maximum concurrent iterations: Capacity of loop"
                  , "details":
                  [
                    {
                      "type":"text"
                      , "text":"Use the %L viewer to estimate capacity"
                      , "links":
                      [
                        {
                          "view":"Fmax II Report"
                        }
                      ]
                    }
                  ]
                }
                , {
                  "type":"text"
                  , "text":"Average Trip count: 120 (exact)"
                }
                , {
                  "type":"text"
                  , "text":"See %L for more information"
                  , "links":
                  [
                    {
                      "guide":"Best Practices Guide : Nested Loops"
                      , "link":"file:////glob/development-tools/versions/oneapi/2022.2/oneapi/compiler/2022.1.0/linux/lib/oclfpga/aoc_help_pages/rfr1469543500580.html"
                    }
                  ]
                }
              ]
              , "children":
              [
                {
                  "name":"process_frame.B5"
                  , "data":
                  ["Yes", "~1", "4"]
                  , "debug":
                  [
                    [
                      {
                        "filename":"/home/u148853/process_frame.cl"
                        , "line":27
                      }
                    ]
                  ]
                  , "details":
                  [
                    {
                      "type":"text"
                      , "text":"II is an approximation due to the following stallable instruction:"
                      , "details":
                      [
                        {
                          "type":"text"
                          , "text":"Load Operation (%L > %L)"
                          , "links":
                          [
                            {
                              "filename":"/home/u148853/process_frame.cl"
                              , "line":"92"
                            }
                            , {
                              "filename":"/home/u148853/process_frame.cl"
                              , "line":"30"
                            }
                          ]
                        }
                      ]
                    }
                    , {
                      "type":"text"
                      , "text":"Maximum concurrent iterations: Capacity of loop"
                      , "details":
                      [
                        {
                          "type":"text"
                          , "text":"Use the %L viewer to estimate capacity"
                          , "links":
                          [
                            {
                              "view":"Fmax II Report"
                            }
                          ]
                        }
                      ]
                    }
                    , {
                      "type":"text"
                      , "text":"Average Trip count: 256 (exact)"
                    }
                    , {
                      "type":"text"
                      , "text":"See %L for more information"
                      , "links":
                      [
                        {
                          "guide":"Best Practices Guide : Loops in a Single Work-Item Kernel"
                          , "link":"file:////glob/development-tools/versions/oneapi/2022.2/oneapi/compiler/2022.1.0/linux/lib/oclfpga/aoc_help_pages/wfa1476380079940.html"
                        }
                      ]
                    }
                  ]
                  , "children":
                  [
                  ]
                }
                , {
                  "name":"process_frame.B9"
                  , "data":
                  ["Yes", ">=1", "4"]
                  , "debug":
                  [
                    [
                      {
                        "filename":"/home/u148853/process_frame.cl"
                        , "line":54
                      }
                    ]
                  ]
                  , "details":
                  [
                    {
                      "type":"text"
                      , "text":"Stallable instruction: n/a"
                    }
                    , {
                      "type":"text"
                      , "text":"Maximum concurrent iterations: Capacity of loop"
                      , "details":
                      [
                        {
                          "type":"text"
                          , "text":"Use the %L viewer to estimate capacity"
                          , "links":
                          [
                            {
                              "view":"Fmax II Report"
                            }
                          ]
                        }
                      ]
                    }
                    , {
                      "type":"text"
                      , "text":"Average Trip count: 31 (exact)"
                    }
                    , {
                      "type":"text"
                      , "text":"See %L for more information"
                      , "links":
                      [
                        {
                          "guide":"Best Practices Guide : Nested Loops"
                          , "link":"file:////glob/development-tools/versions/oneapi/2022.2/oneapi/compiler/2022.1.0/linux/lib/oclfpga/aoc_help_pages/rfr1469543500580.html"
                        }
                      ]
                    }
                  ]
                  , "children":
                  [
                    {
                      "name":"process_frame.B11"
                      , "data":
                      ["Yes", "1", "0"]
                      , "debug":
                      [
                        [
                          {
                            "filename":"/home/u148853/process_frame.cl"
                            , "line":56
                          }
                        ]
                      ]
                      , "details":
                      [
                        {
                          "type":"text"
                          , "text":"Stallable instruction: None"
                        }
                        , {
                          "type":"text"
                          , "text":"Maximum concurrent iterations: Capacity of loop"
                          , "details":
                          [
                            {
                              "type":"text"
                              , "text":"Use the %L viewer to estimate capacity"
                              , "links":
                              [
                                {
                                  "view":"Fmax II Report"
                                }
                              ]
                            }
                          ]
                        }
                        , {
                          "type":"text"
                          , "text":"Average Trip count: 31 (exact)"
                        }
                        , {
                          "type":"text"
                          , "text":"See %L for more information"
                          , "links":
                          [
                            {
                              "guide":"Best Practices Guide : Loops in a Single Work-Item Kernel"
                              , "link":"file:////glob/development-tools/versions/oneapi/2022.2/oneapi/compiler/2022.1.0/linux/lib/oclfpga/aoc_help_pages/wfa1476380079940.html"
                            }
                          ]
                        }
                      ]
                      , "children":
                      [
                        {
                          "name":"Fully unrolled loop"
                          , "data":
                          ["n/a", "n/a", "n/a"]
                          , "debug":
                          [
                            [
                              {
                                "filename":"process_frame.cl"
                                , "line":13
                              }
                            ]
                          ]
                          , "details":
                          [
                            {
                              "type":"brief"
                              , "text":"Unrolled by #pragma unroll"
                            }
                            , {
                              "type":"text"
                              , "text":"Unrolled by #pragma unroll"
                            }
                          ]
                          , "children":
                          [
                          ]
                        }
                      ]
                    }
                  ]
                }
                , {
                  "name":"process_frame.B7"
                  , "data":
                  ["Yes", "~1", "4"]
                  , "debug":
                  [
                    [
                      {
                        "filename":"/home/u148853/process_frame.cl"
                        , "line":39
                      }
                    ]
                  ]
                  , "details":
                  [
                    {
                      "type":"text"
                      , "text":"II is an approximation due to the following stallable instruction:"
                      , "details":
                      [
                        {
                          "type":"text"
                          , "text":"Load Operation (%L > %L)"
                          , "links":
                          [
                            {
                              "filename":"/home/u148853/process_frame.cl"
                              , "line":"95"
                            }
                            , {
                              "filename":"/home/u148853/process_frame.cl"
                              , "line":"42"
                            }
                          ]
                        }
                      ]
                    }
                    , {
                      "type":"text"
                      , "text":"Maximum concurrent iterations: Capacity of loop"
                      , "details":
                      [
                        {
                          "type":"text"
                          , "text":"Use the %L viewer to estimate capacity"
                          , "links":
                          [
                            {
                              "view":"Fmax II Report"
                            }
                          ]
                        }
                      ]
                    }
                    , {
                      "type":"text"
                      , "text":"Average Trip count: 2116 (exact)"
                    }
                    , {
                      "type":"text"
                      , "text":"See %L for more information"
                      , "links":
                      [
                        {
                          "guide":"Best Practices Guide : Loops in a Single Work-Item Kernel"
                          , "link":"file:////glob/development-tools/versions/oneapi/2022.2/oneapi/compiler/2022.1.0/linux/lib/oclfpga/aoc_help_pages/wfa1476380079940.html"
                        }
                      ]
                    }
                  ]
                  , "children":
                  [
                  ]
                }
              ]
            }
          ]
        }
      ]
    }
  ]
}
